<?xml version="1.0" encoding="UTF-8" standalone="no"?>
<!-- Created with Inkscape (http://www.inkscape.org/) -->
<svg
   xmlns:dc="http://purl.org/dc/elements/1.1/"
   xmlns:cc="http://creativecommons.org/ns#"
   xmlns:rdf="http://www.w3.org/1999/02/22-rdf-syntax-ns#"
   xmlns:svg="http://www.w3.org/2000/svg"
   xmlns="http://www.w3.org/2000/svg"
   xmlns:sodipodi="http://sodipodi.sourceforge.net/DTD/sodipodi-0.dtd"
   xmlns:inkscape="http://www.inkscape.org/namespaces/inkscape"
   sodipodi:docname="shapes-f15.svg"
   sodipodi:docbase="/home/aaron/notes/inkdoc/shapes"
   inkscape:version="0.45+devel"
   sodipodi:version="0.32"
   id="svg5684"
   height="1052.3622047"
   width="744.09448819"
   inkscape:output_extension="org.inkscape.output.svg.inkscape">
  <defs
     id="defs3" />
  <sodipodi:namedview
     inkscape:window-y="25"
     inkscape:window-x="4"
     inkscape:window-height="850"
     inkscape:window-width="1220"
     inkscape:current-layer="layer1"
     inkscape:document-units="px"
     inkscape:cy="1005.3426"
     inkscape:cx="152.68395"
     inkscape:zoom="1.979899"
     inkscape:pageshadow="2"
     inkscape:pageopacity="0.0"
     borderopacity="1.0"
     bordercolor="#666666"
     pagecolor="#ffffff"
     id="base" />
  <metadata
     id="metadata4">
    <rdf:RDF>
      <cc:Work
         rdf:about="">
        <dc:format>image/svg+xml</dc:format>
        <dc:type
           rdf:resource="http://purl.org/dc/dcmitype/StillImage" />
      </cc:Work>
    </rdf:RDF>
  </metadata>
  <g
     id="layer1"
     inkscape:groupmode="layer"
     inkscape:label="Layer 1">
    <g
       id="g3367">
      <path
         sodipodi:type="star"
         style="stroke-opacity:1.0000000;stroke-dashoffset:0.0000000;stroke-miterlimit:4.0000000;marker-end:none;marker-mid:none;marker-start:none;marker:none;stroke-linejoin:miter;stroke-linecap:butt;stroke-width:0.75000000;stroke:none;fill-rule:evenodd;fill-opacity:1.0000000;fill:#000000;color:#000000"
         id="path4264"
         sodipodi:sides="4"
         sodipodi:cx="171.63371"
         sodipodi:cy="4696.8921"
         sodipodi:r1="45.711628"
         sodipodi:r2="32.323002"
         sodipodi:arg1="0.78539816"
         sodipodi:arg2="1.5707963"
         inkscape:flatsided="true"
         inkscape:rounded="0.18435333"
         inkscape:randomized="0.0000000"
         d="M 203.95671,4729.2151 C 195.52962,4737.6422 147.73780,4737.6422 139.31071,4729.2151 C 130.88362,4720.7880 130.88362,4672.9962 139.31071,4664.5691 C 147.73780,4656.1420 195.52962,4656.1420 203.95671,4664.5691 C 212.38381,4672.9962 212.38381,4720.7880 203.95671,4729.2151 z "
         transform="matrix(1.174602,0.000000,0.000000,1.174602,-0.548917,-5471.588)" />
      <flowRoot
         transform="translate(0.2960376,29.61964)"
         style="font-size:10px;font-style:normal;font-variant:normal;font-weight:normal;font-stretch:normal;text-align:center;line-height:125%;writing-mode:lr-tb;text-anchor:middle;fill:#ffffff;fill-opacity:1;stroke:none;stroke-width:1px;stroke-linecap:butt;stroke-linejoin:miter;stroke-opacity:1;font-family:sans-serif"
         id="flowRoot2696"
         xml:space="preserve"><flowRegion
           id="flowRegion2698"><rect
             style="font-size:10px;font-style:normal;font-variant:normal;font-weight:normal;font-stretch:normal;text-align:center;line-height:125%;writing-mode:lr-tb;text-anchor:middle;fill:#ffffff;fill-opacity:1;font-family:sans-serif"
             y="2.3086112"
             x="159.09903"
             height="85.862968"
             width="82.327431"
             id="rect2700" /></flowRegion><flowPara
           id="flowPara2702">Rounded polygon</flowPara></flowRoot>    </g>
    <g
       id="g3360">
      <rect
         style="color:#000000;fill:#000000;fill-opacity:1.0000000;fill-rule:evenodd;stroke:none;stroke-width:0.75000000;stroke-linecap:butt;stroke-linejoin:miter;marker:none;marker-start:none;marker-mid:none;marker-end:none;stroke-miterlimit:4.0000000;stroke-dashoffset:0.0000000;stroke-opacity:1.0000000"
         id="rect4263"
         width="87.191818"
         height="87.191818"
         x="56.116741"
         y="1.8126992"
         ry="18.040419"
         rx="18.040419" />
      <flowRoot
         transform="translate(-100.74096,29.637406)"
         style="font-size:10px;font-style:normal;font-variant:normal;font-weight:normal;font-stretch:normal;text-align:center;line-height:125%;writing-mode:lr-tb;text-anchor:middle;fill:#ffffff;fill-opacity:1;stroke:none;stroke-width:1px;stroke-linecap:butt;stroke-linejoin:miter;stroke-opacity:1;font-family:sans-serif"
         id="flowRoot3352"
         xml:space="preserve"><flowRegion
           id="flowRegion3354"><rect
             style="font-size:10px;font-style:normal;font-variant:normal;font-weight:normal;font-stretch:normal;text-align:center;line-height:125%;writing-mode:lr-tb;text-anchor:middle;fill:#ffffff;fill-opacity:1;font-family:sans-serif"
             y="2.3086112"
             x="159.09903"
             height="85.862968"
             width="82.327431"
             id="rect3356" /></flowRegion><flowPara
           id="flowPara3358">Rounded rectangle</flowPara></flowRoot>    </g>
  </g>
</svg>
