<?xml version="1.0" encoding="UTF-8" standalone="no"?>
<!-- Created with Inkscape (http://www.inkscape.org/) -->
<svg
   xmlns:xml="http://www.w3.org/XML/1998/namespace"
   xmlns:dc="http://purl.org/dc/elements/1.1/"
   xmlns:cc="http://web.resource.org/cc/"
   xmlns:rdf="http://www.w3.org/1999/02/22-rdf-syntax-ns#"
   xmlns:svg="http://www.w3.org/2000/svg"
   xmlns="http://www.w3.org/2000/svg"
   xmlns:sodipodi="http://sodipodi.sourceforge.net/DTD/sodipodi-0.dtd"
   xmlns:inkscape="http://www.inkscape.org/namespaces/inkscape"
   width="744.09448819"
   height="1052.3622047"
   id="svg5729"
   sodipodi:version="0.32"
   inkscape:version="0.41+cvs"
   sodipodi:docbase="/home/aaron/notes/inkdoc/shapes"
   sodipodi:docname="shapes-f16.svg">
  <defs
     id="defs3" />
  <sodipodi:namedview
     id="base"
     pagecolor="#ffffff"
     bordercolor="#666666"
     borderopacity="1.0"
     inkscape:pageopacity="0.0"
     inkscape:pageshadow="2"
     inkscape:zoom="2.8000000"
     inkscape:cx="154.37077"
     inkscape:cy="958.26259"
     inkscape:document-units="px"
     inkscape:current-layer="layer1"
     inkscape:window-width="1024"
     inkscape:window-height="713"
     inkscape:window-x="0"
     inkscape:window-y="0" />
  <metadata
     id="metadata4">
    <rdf:RDF
       id="RDF5">
      <cc:Work
         rdf:about=""
         id="Work6">
        <dc:format
           id="format7">image/svg+xml</dc:format>
        <dc:type
           id="type9"
           rdf:resource="http://purl.org/dc/dcmitype/StillImage" />
      </cc:Work>
    </rdf:RDF>
  </metadata>
  <g
     inkscape:label="Layer 1"
     inkscape:groupmode="layer"
     id="layer1">
    <path
       sodipodi:type="star"
       style="stroke-opacity:0.13114752;stroke-miterlimit:4.0000000;stroke-linejoin:miter;stroke-linecap:butt;stroke-width:3.3750434;stroke:#000000;fill-rule:evenodd;fill-opacity:0.75000000;fill:none"
       id="path1575"
       sodipodi:sides="5"
       sodipodi:cx="254.06618"
       sodipodi:cy="551.97913"
       sodipodi:r1="27.797562"
       sodipodi:r2="27.797562"
       sodipodi:arg1="0.22082877"
       sodipodi:arg2="0.84914730"
       inkscape:flatsided="false"
       inkscape:rounded="5.1300000"
       d="M 281.18871,558.06786 C 261.88430,644.06024 338.59255,514.62479 272.42990,572.84724 C 206.26725,631.06969 344.40578,571.44219 256.65677,579.65571 C 168.90777,587.86923 315.71235,620.82536 239.89413,575.89267 C 164.07590,530.95997 263.47218,643.91161 228.54472,562.99546 C 193.61727,482.07932 207.63923,631.88277 226.94364,545.89039 C 246.24806,459.89801 169.53980,589.33346 235.70245,531.11101 C 301.86510,472.88857 163.72658,532.51606 251.47558,524.30254 C 339.22459,516.08902 192.42001,483.13289 268.23823,528.06559 C 344.05645,572.99828 244.66018,460.04664 279.58763,540.96279 C 314.51509,621.87893 300.49312,472.07548 281.18871,558.06786 z "
       transform="matrix(0.307966,-3.233534e-2,-3.233534e-2,-0.307966,-34.05150,272.3350)"
       inkscape:randomized="0.0000000" />
    <path
       sodipodi:type="star"
       style="font-family:sans-serif;stroke-opacity:1.0000000;stroke-dashoffset:0.0000000;stroke-miterlimit:4.0000000;marker-end:none;marker-mid:none;marker-start:none;marker:none;stroke-linejoin:miter;stroke-linecap:butt;stroke-width:0.031250000;stroke:#000000;fill-rule:evenodd;fill-opacity:0.75000000;fill:none;color:#000000;text-anchor:start;writing-mode:lr-tb;letter-spacing:0.0000000;font-stretch:ultra-condensed;font-weight:100;font-variant:normal;font-style:normal;font-size:12.000000"
       id="path1556"
       sodipodi:sides="18"
       sodipodi:cx="377.20990"
       sodipodi:cy="459.14322"
       sodipodi:r1="56.586357"
       sodipodi:r2="2.4662609"
       sodipodi:arg1="1.1708920"
       sodipodi:arg2="-2.6860230"
       inkscape:flatsided="false"
       inkscape:rounded="0.37000000"
       d="M 399.24068,511.26481 C 405.25006,490.48212 396.08205,453.22319 374.99517,458.05813 C 354.14186,462.83951 367.47163,532.93693 380.08543,515.65647 C 392.84050,498.18245 396.96869,460.03487 375.49986,457.36609 C 354.26882,454.72686 342.81998,525.15594 360.58334,513.23179 C 378.54566,501.17408 395.47213,466.73900 376.21080,456.88839 C 357.16282,447.14689 322.31627,509.41284 343.08666,504.28323 C 364.08970,499.09616 391.77287,472.52697 377.04225,456.68266 C 362.47480,441.01385 308.43353,487.60649 329.70575,489.89012 C 351.21623,492.19933 386.31710,476.70066 377.89392,456.77371 C 369.56404,437.06749 302.84625,462.36704 322.05455,471.78848 C 341.47799,481.31545 379.76287,478.75666 378.66309,457.15056 C 377.57549,435.78378 306.22831,436.73875 321.05589,452.16164 C 336.04954,467.75726 372.90072,478.44700 379.25698,457.76775 C 385.54284,437.31756 318.17180,413.81277 326.83023,433.37687 C 335.58563,453.16010 366.55831,475.80901 379.60396,458.55085 C 392.50512,441.48384 337.23616,396.35432 338.68110,417.69991 C 340.14223,439.28459 361.50065,471.16088 379.66219,459.40539 C 397.62256,447.78011 361.12194,386.46913 355.17912,407.02162 C 349.16974,427.80432 358.33775,465.06325 379.42463,460.22831 C 400.27794,455.44693 386.94817,385.34951 374.33437,402.62997 C 361.57930,420.10399 357.45111,458.25157 378.91994,460.92035 C 400.15097,463.55958 411.59982,393.13050 393.83646,405.05465 C 375.87414,417.11236 358.94767,451.54744 378.20900,461.39805 C 397.25698,471.13955 432.10353,408.87359 411.33314,414.00321 C 390.33010,419.19028 362.64693,445.75947 377.37755,461.60378 C 391.94500,477.27258 445.98627,430.67995 424.71405,428.39632 C 403.20357,426.08711 368.10270,441.58578 376.52588,461.51272 C 384.85576,481.21895 451.57355,455.91940 432.36525,446.49796 C 412.94181,436.97099 374.65693,439.52977 375.75671,461.13588 C 376.84431,482.50266 448.19149,481.54769 433.36391,466.12480 C 418.37026,450.52917 381.51908,439.83944 375.16282,460.51868 C 368.87696,480.96888 436.24800,504.47366 427.58957,484.90957 C 418.83417,465.12634 387.86149,442.47743 374.81584,459.73559 C 361.91468,476.80259 417.18364,521.93212 415.73870,500.58653 C 414.27757,479.00185 392.91915,447.12556 374.75761,458.88105 C 356.79724,470.50633 393.29786,531.81731 399.24068,511.26481 z "
       transform="matrix(1.252191,0.000000,0.000000,-1.252191,-268.8556,649.3270)"
       inkscape:randomized="0.0000000" />
    <path
       sodipodi:type="star"
       style="font-family:sans-serif;stroke-opacity:1.0000000;stroke-dashoffset:0.0000000;stroke-miterlimit:4.0000000;marker-end:none;marker-mid:none;marker-start:none;marker:none;stroke-linejoin:miter;stroke-linecap:butt;stroke-width:0.36259648;stroke:#000000;fill-rule:evenodd;fill-opacity:0.75000000;fill:#cecece;color:#000000;text-anchor:start;writing-mode:lr-tb;letter-spacing:0.0000000;font-stretch:ultra-condensed;font-weight:100;font-variant:normal;font-style:normal;font-size:12.000000"
       id="path1559"
       sodipodi:sides="4"
       sodipodi:cx="78.599991"
       sodipodi:cy="584.08337"
       sodipodi:r1="33.805592"
       sodipodi:r2="0.93718392"
       sodipodi:arg1="0.0000000"
       sodipodi:arg2="0.78539816"
       inkscape:flatsided="false"
       inkscape:rounded="1.8500000"
       d="M 112.40558,584.08337 C 112.40558,645.41000 122.62715,541.38159 79.262680,584.74606 C 35.898208,628.11054 139.92662,617.88897 78.599991,617.88897 C 17.273366,617.88897 121.30177,628.11054 77.937302,584.74606 C 34.572829,541.38159 44.794399,645.41000 44.794399,584.08337 C 44.794399,522.75675 34.572829,626.78516 77.937302,583.42068 C 121.30177,540.05621 17.273366,550.27778 78.599991,550.27778 C 139.92662,550.27778 35.898208,540.05621 79.262680,583.42068 C 122.62715,626.78516 112.40558,522.75675 112.40558,584.08337 z "
       transform="matrix(0.549977,0.000000,0.000000,-0.549977,24.59580,424.7180)"
       inkscape:randomized="0.0000000" />
    <path
       sodipodi:type="star"
       style="stroke-opacity:1.0000000;stroke-linejoin:miter;stroke-linecap:butt;stroke-width:1.0000000pt;stroke:#000000;fill-rule:evenodd;fill-opacity:0.75000000;fill:#8eff00"
       id="path2808"
       sodipodi:sides="4"
       sodipodi:cx="285.61685"
       sodipodi:cy="626.70453"
       sodipodi:r1="38.196964"
       sodipodi:r2="7.8936343"
       sodipodi:arg1="-0.0000000"
       sodipodi:arg2="0.78539816"
       inkscape:flatsided="false"
       inkscape:rounded="0.25000000"
       d="M 323.81382,626.70453 C 323.81382,634.97690 297.04794,626.43672 291.19849,632.28617 C 285.34904,638.13562 293.88922,664.90149 285.61685,664.90149 C 277.34448,664.90149 285.88466,638.13562 280.03521,632.28617 C 274.18576,626.43672 247.41989,634.97690 247.41989,626.70453 C 247.41989,618.43216 274.18576,626.97234 280.03521,621.12289 C 285.88466,615.27344 277.34448,588.50756 285.61685,588.50756 C 293.88922,588.50756 285.34904,615.27344 291.19849,621.12289 C 297.04794,626.97234 323.81382,618.43216 323.81382,626.70453 z "
       transform="matrix(0.748940,0.000000,0.000000,-0.748940,60.65535,545.3560)"
       inkscape:randomized="0.0000000" />
    <path
       sodipodi:type="star"
       style="stroke-opacity:1.0000000;stroke-linejoin:miter;stroke-linecap:butt;stroke-width:1.0000019pt;stroke:#000000;fill-rule:evenodd;fill-opacity:0.75000000;fill:#8eff00"
       id="path3430"
       sodipodi:sides="5"
       sodipodi:cx="285.61685"
       sodipodi:cy="626.70453"
       sodipodi:r1="38.196964"
       sodipodi:r2="9.5492411"
       sodipodi:arg1="-0.0000000"
       sodipodi:arg2="0.62831853"
       inkscape:flatsided="false"
       inkscape:rounded="0.24000000"
       d="M 323.81382,626.70453 C 323.81382,634.14071 297.71323,626.30143 293.34235,632.31743 C 288.97147,638.33343 304.49260,660.73409 297.42036,663.03200 C 290.34813,665.32991 289.73821,638.08430 282.66597,635.78640 C 275.59374,633.48849 259.08574,655.17214 254.71486,649.15614 C 250.34398,643.14014 276.06761,634.14071 276.06761,626.70453 C 276.06761,619.26834 250.34398,610.26892 254.71486,604.25292 C 259.08574,598.23692 275.59374,619.92057 282.66597,617.62266 C 289.73821,615.32475 290.34813,588.07915 297.42036,590.37706 C 304.49260,592.67496 288.97147,615.07563 293.34235,621.09163 C 297.71323,627.10763 323.81382,619.26834 323.81382,626.70453 z "
       transform="matrix(0.716804,0.217032,0.217032,-0.716804,-66.02363,504.5840)"
       inkscape:randomized="0.0000000" />
    <path
       sodipodi:type="star"
       style="stroke-opacity:1.0000000;stroke-dashoffset:0.0000000;stroke-dasharray:1.4274618 1.4274618;stroke-miterlimit:4.0000000;stroke-width:1.4274611;stroke:#000000;fill-rule:evenodd;fill-opacity:1.0000000;fill:#000000"
       id="path1586"
       sodipodi:sides="3"
       sodipodi:cx="346.60431"
       sodipodi:cy="649.26288"
       sodipodi:r1="38.821625"
       sodipodi:r2="36.683537"
       sodipodi:arg1="0.59891126"
       sodipodi:arg2="1.6461088"
       inkscape:flatsided="true"
       inkscape:rounded="0.21000000"
       d="M 378.66903,671.14832 C 370.70862,682.81124 317.73879,678.81439 311.61860,666.08902 C 305.49842,653.36364 335.44471,609.48885 349.52530,610.55130 C 363.60589,611.61375 386.62943,659.48540 378.66903,671.14832 z "
       transform="matrix(0.112357,6.849093e-3,6.849093e-3,-0.112357,7.881487,207.1500)"
       inkscape:randomized="0.0000000" />
    <path
       sodipodi:type="star"
       style="stroke-opacity:1.0000000;stroke-dashoffset:0.0000000;stroke-dasharray:1.4275137 1.4275137;stroke-miterlimit:4.0000000;stroke-width:1.4275173;stroke:#000000;fill-rule:evenodd;fill-opacity:1.0000000;fill:#000000"
       id="path2214"
       sodipodi:sides="4"
       sodipodi:cx="346.60431"
       sodipodi:cy="649.26288"
       sodipodi:r1="38.821625"
       sodipodi:r2="36.683537"
       sodipodi:arg1="0.59891126"
       sodipodi:arg2="1.3843094"
       inkscape:flatsided="true"
       inkscape:rounded="0.21000000"
       d="M 378.66903,671.14832 C 372.16938,680.67105 334.24160,687.82724 324.71887,681.32759 C 315.19613,674.82795 308.03995,636.90017 314.53959,627.37744 C 321.03924,617.85470 358.96702,610.69852 368.48975,617.19816 C 378.01248,623.69781 385.16867,661.62558 378.66903,671.14832 z "
       transform="matrix(0.111212,-1.740816e-2,-1.740816e-2,-0.111212,34.31171,215.8190)"
       inkscape:randomized="0.0000000" />
    <path
       sodipodi:type="star"
       style="stroke-opacity:1.0000000;stroke-dashoffset:0.0000000;stroke-dasharray:1.4274952 1.4274952;stroke-miterlimit:4.0000000;stroke-width:1.4274960;stroke:#000000;fill-rule:evenodd;fill-opacity:1.0000000;fill:#000000"
       id="path2215"
       sodipodi:sides="5"
       sodipodi:cx="346.60431"
       sodipodi:cy="649.26288"
       sodipodi:r1="38.821625"
       sodipodi:r2="36.683537"
       sodipodi:arg1="0.59891126"
       sodipodi:arg2="1.2272298"
       inkscape:flatsided="true"
       inkscape:rounded="0.21000000"
       d="M 378.66903,671.14832 C 373.26617,679.06413 344.89652,689.21351 335.69856,686.52121 C 326.50060,683.82891 308.08126,659.98410 307.79947,650.40435 C 307.51767,640.82461 324.50355,615.93832 333.52735,612.71002 C 342.55115,609.48171 371.46833,617.94595 377.32714,625.53049 C 383.18595,633.11503 384.07188,663.23251 378.66903,671.14832 z "
       transform="matrix(0.106220,-3.726607e-2,-3.726607e-2,-0.106220,59.87360,219.4050)"
       inkscape:randomized="0.0000000" />
    <path
       sodipodi:type="star"
       style="stroke-opacity:1.0000000;stroke-dashoffset:0.0000000;stroke-dasharray:1.4274604 1.4274604;stroke-miterlimit:4.0000000;stroke-width:1.4274589;stroke:#000000;fill-rule:evenodd;fill-opacity:1.0000000;fill:#000000"
       id="path2216"
       sodipodi:sides="6"
       sodipodi:cx="346.60431"
       sodipodi:cy="649.26288"
       sodipodi:r1="38.821625"
       sodipodi:r2="36.683537"
       sodipodi:arg1="0.59891126"
       sodipodi:arg2="1.1225100"
       inkscape:flatsided="true"
       inkscape:rounded="0.21000000"
       d="M 378.66903,671.14832 C 374.07308,677.88191 351.81275,688.58787 343.68332,687.97446 C 335.55389,687.36105 315.15209,673.43601 311.61860,666.08902 C 308.08511,658.74202 309.94365,634.11103 314.53959,627.37744 C 319.13554,620.64385 341.39587,609.93789 349.52530,610.55130 C 357.65473,611.16471 378.05653,625.08974 381.59002,632.43674 C 385.12350,639.78374 383.26497,664.41473 378.66903,671.14832 z "
       transform="matrix(0.112523,3.153940e-3,3.153940e-3,-0.112523,42.43847,209.5460)"
       inkscape:randomized="0.0000000" />
    <path
       sodipodi:type="star"
       style="font-family:sans-serif;stroke-opacity:1.0000000;stroke-dashoffset:0.0000000;stroke-miterlimit:4.0000000;marker-end:none;marker-mid:none;marker-start:none;marker:none;stroke-linejoin:miter;stroke-linecap:butt;stroke-width:4.1999998;stroke:#000000;fill-rule:evenodd;fill-opacity:0.74998099;fill:#ff6000;color:#000000;text-anchor:start;writing-mode:lr-tb;letter-spacing:0.0000000;font-stretch:ultra-condensed;font-weight:100;font-variant:normal;font-style:normal;font-size:12.000000"
       id="path905"
       sodipodi:sides="3"
       sodipodi:cx="-651.47363"
       sodipodi:cy="-1048.6403"
       sodipodi:r1="266.75140"
       sodipodi:r2="86.869286"
       sodipodi:arg1="0.54565505"
       sodipodi:arg2="0.65224913"
       inkscape:flatsided="false"
       inkscape:rounded="-3.0000000"
       d="M -423.45786,-910.20211 C -633.01332,-1409.8741 -1124.1319,-1008.2425 -582.43682,-995.91274 C 353.94260,-974.59938 -1814.5112,-1038.5521 -885.37247,-920.39188 C -347.86611,-852.03624 -450.12998,-1478.1732 -731.65541,-1015.2164 C -1218.3030,-214.94470 -78.691431,-2060.9044 -645.59057,-1315.3268 C -973.54147,-884.01044 -380.15903,-659.50507 -640.32867,-1134.7917 C -1090.0605,-1956.3767 -61.218238,-46.464232 -423.45786,-910.20211 z "
       transform="matrix(6.043272e-2,0.000000,0.000000,-6.043272e-2,168.5167,2.007000)"
       inkscape:randomized="0.0000000" />
    <path
       sodipodi:type="star"
       style="stroke-opacity:1.0000000;stroke-linejoin:miter;stroke-linecap:butt;stroke-width:1.0000001pt;stroke:#acacac;fill-rule:evenodd;fill-opacity:0.75000000;fill:#fcfcfc"
       id="path4053"
       sodipodi:sides="6"
       sodipodi:cx="272.33234"
       sodipodi:cy="606.22424"
       sodipodi:r1="27.681587"
       sodipodi:r2="11.966143"
       sodipodi:arg1="0.20131714"
       sodipodi:arg2="-3.0483195"
       inkscape:flatsided="false"
       inkscape:rounded="3.0000000"
       d="M 299.45487,611.75945 C 249.91437,503.78513 339.18292,516.17810 260.41821,605.10974 C 192.18155,682.15437 221.54958,716.42032 281.09997,632.48065 C 349.83823,535.59016 383.73987,619.09548 267.34046,595.34905 C 166.49952,574.77669 151.50836,617.34312 253.97744,626.94544 C 372.25619,638.02927 316.88929,709.14161 279.25459,596.46356 C 246.65031,498.84656 202.29112,507.14705 245.20981,600.68903 C 294.75030,708.66336 205.48175,696.27038 284.24646,607.33875 C 352.48313,530.29412 323.11510,496.02817 263.56470,579.96784 C 194.82645,676.85833 160.92480,593.35301 277.32421,617.09943 C 378.16515,637.67180 393.15632,595.10537 290.68724,585.50305 C 172.40848,574.41921 227.77538,503.30687 265.41009,615.98493 C 298.01436,713.60193 342.37356,705.30144 299.45487,611.75945 z "
       transform="matrix(0.477810,7.371536e-2,7.371536e-2,-0.477810,-114.9199,309.0950)"
       inkscape:randomized="0.0000000" />
    <path
       sodipodi:type="star"
       style="stroke-opacity:0.23692299;stroke-dashoffset:0.0000000;stroke-miterlimit:4.0000000;marker-end:none;marker-mid:none;marker-start:none;marker:none;stroke-linejoin:miter;stroke-linecap:butt;stroke-width:0.082840365pt;stroke:none;fill-rule:evenodd;fill-opacity:1.0000000;fill:#000000;color:#000000"
       id="path1545"
       sodipodi:sides="3"
       sodipodi:cx="397.50070"
       sodipodi:cy="420.22922"
       sodipodi:r1="39.614254"
       sodipodi:r2="1.0779980"
       sodipodi:arg1="2.3198469"
       sodipodi:arg2="3.3670445"
       inkscape:flatsided="false"
       inkscape:rounded="-3.0000000"
       d="M 370.52562,449.24015 C 456.39873,529.08709 422.66290,305.69647 396.44998,419.98823 C 370.23707,534.28000 497.95007,347.91782 385.86404,382.36265 C 273.77801,416.80747 484.10787,499.28669 398.23476,419.43976 C 312.36165,339.59283 409.89952,543.37662 436.11245,429.08486 C 462.32537,314.79309 285.73133,455.70449 397.81736,421.25966 C 509.90339,386.81483 284.65252,369.39321 370.52562,449.24015 z "
       transform="matrix(0.270281,-8.043548e-2,-8.043548e-2,-0.270281,39.03150,168.4570)"
       inkscape:randomized="0.0000000" />
    <path
       sodipodi:type="star"
       style="font-family:sans-serif;stroke-opacity:1.0000000;stroke-dashoffset:0.0000000;stroke-miterlimit:4.0000000;marker-end:none;marker-mid:none;marker-start:none;marker:none;stroke-linejoin:miter;stroke-linecap:butt;stroke-width:0.57520527;stroke:#000000;fill-rule:evenodd;fill-opacity:0.75000000;fill:#8eff00;color:#000000;text-anchor:start;writing-mode:lr-tb;letter-spacing:0.0000000;font-stretch:ultra-condensed;font-weight:100;font-variant:normal;font-style:normal;font-size:12.000000"
       id="path1591"
       sodipodi:sides="3"
       sodipodi:cx="262.92249"
       sodipodi:cy="377.06650"
       sodipodi:r1="17.850517"
       sodipodi:r2="2.4989247"
       sodipodi:arg1="0.51914611"
       sodipodi:arg2="1.5663437"
       inkscape:flatsided="false"
       inkscape:rounded="0.25000000"
       d="M 278.42107,385.92283 C 276.34454,389.55676 267.11895,379.54676 262.93361,379.56540 C 258.74827,379.58403 249.61219,389.67579 247.50338,386.06050 C 245.39457,382.44521 258.67628,379.46061 260.75281,375.82668 C 262.82934,372.19276 258.65766,359.23479 262.84300,359.21616 C 267.02834,359.19752 262.97222,372.19212 265.08103,375.80741 C 267.18984,379.42270 280.49760,382.28891 278.42107,385.92283 z "
       transform="matrix(1.627536,0.000000,0.000000,1.627536,-153.1836,-574.1410)"
       inkscape:randomized="0.0000000" />
    <text
       sodipodi:insensitive="true"
       xml:space="preserve"
       style="font-size:3.9790041;font-style:normal;font-variant:normal;font-weight:normal;font-stretch:normal;line-height:120.00000%;writing-mode:lr-tb;text-anchor:start;fill:#000000;fill-opacity:1.0000000;stroke:none;stroke-width:1.0000000pt;stroke-linecap:butt;stroke-linejoin:miter;stroke-opacity:1.0000000;font-family:sans-serif"
       x="269.70953"
       y="72.533112"
       id="text2547"
       sodipodi:linespacing="120.00000%"><tspan
         sodipodi:role="line"
         id="tspan2548"
         x="269.70953"
         y="72.533112" /><tspan
         id="tspan2550" /><tspan
         sodipodi:role="line"
         id="tspan2552"
         x="269.70953"
         y="77.307917">0.25</tspan></text>
    <text
       sodipodi:insensitive="true"
       xml:space="preserve"
       style="font-size:3.9790041;font-style:normal;font-variant:normal;font-weight:normal;font-stretch:normal;line-height:120.00000%;writing-mode:lr-tb;text-anchor:start;fill:#000000;fill-opacity:1.0000000;stroke:none;stroke-width:1.0000000pt;stroke-linecap:butt;stroke-linejoin:miter;stroke-opacity:1.0000000;font-family:sans-serif"
       x="270.21283"
       y="37.697109"
       id="text2856"
       sodipodi:linespacing="120.00000%"><tspan
         sodipodi:role="line"
         id="tspan2555"
         x="270.21283"
         y="37.697109" /><tspan
         id="tspan2557" /><tspan
         sodipodi:role="line"
         id="tspan2559"
         x="270.21283"
         y="42.471914">0.25</tspan></text>
    <text
       sodipodi:insensitive="true"
       xml:space="preserve"
       style="font-size:3.9790041;font-style:normal;font-variant:normal;font-weight:normal;font-stretch:normal;line-height:120.00000%;writing-mode:lr-tb;text-anchor:start;fill:#000000;fill-opacity:1.0000000;stroke:none;stroke-width:1.0000000pt;stroke-linecap:butt;stroke-linejoin:miter;stroke-opacity:1.0000000;font-family:sans-serif"
       x="270.13705"
       y="114.07111"
       id="text2561"
       sodipodi:linespacing="120.00000%"><tspan
         sodipodi:role="line"
         id="tspan2562"
         x="270.13705"
         y="114.07111" /><tspan
         id="tspan2564" /><tspan
         sodipodi:role="line"
         id="tspan2566"
         x="270.13705"
         y="118.84592">0.25</tspan></text>
    <text
       sodipodi:insensitive="true"
       xml:space="preserve"
       style="font-size:3.9790072;font-style:normal;font-variant:normal;font-weight:normal;font-stretch:normal;line-height:120.00000%;writing-mode:lr-tb;text-anchor:start;fill:#000000;fill-opacity:1.0000000;stroke:none;stroke-width:1.0000000pt;stroke-linecap:butt;stroke-linejoin:miter;stroke-opacity:1.0000000;font-family:sans-serif"
       x="214.9263"
       y="-106.66351"
       id="text2568"
       transform="matrix(0.500003,0.866024,-0.866024,0.500003,0.000000,0.000000)"
       sodipodi:linespacing="120.00000%"><tspan
         sodipodi:role="line"
         id="tspan2569"
         x="214.92630"
         y="-106.66351" /><tspan
         id="tspan2571" /><tspan
         sodipodi:role="line"
         id="tspan2573"
         x="214.92630"
         y="-101.88870">0.37</tspan></text>
    <path
       sodipodi:type="star"
       style="stroke-opacity:1.0000000;stroke-miterlimit:4.0000000;stroke-linejoin:miter;stroke-linecap:butt;stroke-width:0.37500000;stroke:#000000;fill-rule:evenodd;fill-opacity:0.75000000;fill:#cecece"
       id="path1554"
       sodipodi:sides="9"
       sodipodi:cx="451.89960"
       sodipodi:cy="620.88135"
       sodipodi:r1="23.086590"
       sodipodi:r2="14.298160"
       sodipodi:arg1="1.1382904"
       sodipodi:arg2="1.4814137"
       inkscape:flatsided="false"
       inkscape:rounded="0.43000000"
       d="M 461.57628,641.84208 C 457.38816,643.80584 457.78546,634.73692 453.17590,635.12243 C 448.51320,635.51239 450.36116,644.35969 445.83906,643.15825 C 441.36850,641.97051 447.50224,635.27869 443.72331,632.61104 C 439.90082,629.91264 435.62950,637.87792 432.93764,634.05081 C 430.27646,630.26733 439.27660,629.08379 438.09650,624.61120 C 436.90279,620.08705 428.51080,623.44326 428.90873,618.78123 C 429.30212,614.17234 436.95739,619.05087 438.92831,614.86612 C 440.92194,610.63312 432.33597,607.80985 435.63750,604.49432 C 438.90139,601.21657 441.62981,609.87446 445.82952,607.93563 C 450.07766,605.97445 445.31518,598.29275 449.97548,597.87508 C 454.58267,597.46217 451.10758,605.84829 455.57100,607.06259 C 460.08588,608.29088 461.37532,599.34510 465.21379,602.02073 C 469.00851,604.66586 460.95594,608.85626 463.59458,612.65549 C 466.26365,616.49853 473.00165,610.47450 474.22223,614.99147 C 475.42890,619.45696 466.56674,617.49090 466.14595,622.09737 C 465.72032,626.75695 474.75410,626.47338 472.78567,630.71815 C 470.83966,634.91455 465.31462,627.71197 462.03130,630.97026 C 458.71012,634.26611 465.81268,639.85569 461.57628,641.84208 z "
       transform="matrix(0.964586,6.719919e-2,6.719919e-2,-0.964586,-356.5721,688.7050)"
       inkscape:randomized="0.0000000" />
    <text
       sodipodi:insensitive="true"
       xml:space="preserve"
       style="font-size:3.9790041;font-style:normal;font-variant:normal;font-weight:normal;font-stretch:normal;line-height:120.00000%;writing-mode:lr-tb;text-anchor:start;fill:#000000;fill-opacity:1.0000000;stroke:none;stroke-width:1.0000000pt;stroke-linecap:butt;stroke-linejoin:miter;stroke-opacity:1.0000000;font-family:sans-serif"
       x="116.22874"
       y="117.60011"
       id="text2575"
       sodipodi:linespacing="120.00000%"><tspan
         sodipodi:role="line"
         id="tspan2576"
         x="116.22874"
         y="117.60011" /><tspan
         id="tspan2578" /><tspan
         sodipodi:role="line"
         id="tspan2580"
         x="116.22874"
         y="122.37492">0.43</tspan></text>
    <text
       sodipodi:insensitive="true"
       xml:space="preserve"
       style="font-size:3.9789882;font-style:normal;font-variant:normal;font-weight:normal;font-stretch:normal;line-height:120.00000%;writing-mode:lr-tb;text-anchor:start;fill:#000000;fill-opacity:1.0000000;stroke:none;stroke-width:1.0000000pt;stroke-linecap:butt;stroke-linejoin:miter;stroke-opacity:1.0000000;font-family:sans-serif"
       x="32.583221"
       y="-39.030281"
       id="text2582"
       transform="matrix(0.384906,0.922956,-0.922956,0.384906,0.000000,0.000000)"
       sodipodi:linespacing="120.00000%"><tspan
         sodipodi:role="line"
         id="tspan2583"
         x="32.583221"
         y="-39.030281" /><tspan
         id="tspan2585" /><tspan
         sodipodi:role="line"
         id="tspan2587"
         x="32.583221"
         y="-34.255495">3.00</tspan></text>
    <text
       sodipodi:insensitive="true"
       xml:space="preserve"
       style="font-size:3.9789798;font-style:normal;font-variant:normal;font-weight:normal;font-stretch:normal;line-height:120.00000%;writing-mode:lr-tb;text-anchor:start;fill:#000000;fill-opacity:1.0000000;stroke:none;stroke-width:1.0000000pt;stroke-linecap:butt;stroke-linejoin:miter;stroke-opacity:1.0000000;font-family:sans-serif"
       x="107.11456"
       y="38.639725"
       id="text2589"
       transform="matrix(1.000000,-5.974290e-4,5.974290e-4,1.000000,0.000000,0.000000)"
       sodipodi:linespacing="120.00000%"><tspan
         sodipodi:role="line"
         id="tspan2590"
         x="107.11456"
         y="43.414501">-</tspan><tspan
         id="tspan2592" /><tspan
         id="tspan2594">3.00</tspan><tspan
         sodipodi:role="line"
         id="tspan2596"
         x="107.11456"
         y="43.414501" /></text>
    <path
       sodipodi:type="star"
       style="stroke-opacity:0.23692299;stroke-dashoffset:0.0000000;stroke-miterlimit:4.0000000;marker-end:none;marker-mid:none;marker-start:none;marker:none;stroke-linejoin:miter;stroke-linecap:butt;stroke-width:0.68540149pt;stroke:none;fill-rule:evenodd;fill-opacity:1.0000000;fill:#000000;color:#000000"
       id="path896"
       sodipodi:sides="3"
       sodipodi:cx="224.45302"
       sodipodi:cy="492.50204"
       sodipodi:r1="120.20276"
       sodipodi:r2="60.101379"
       sodipodi:arg1="0.52807445"
       sodipodi:arg2="1.5752720"
       inkscape:flatsided="false"
       inkscape:rounded="0.41000000"
       d="M 328.28162,553.06873 C 306.77619,589.93520 266.86404,552.79385 224.18402,552.60282 C 181.50401,552.41180 141.26100,589.19440 120.08642,552.13691 C 98.911848,515.07942 151.03328,499.08517 172.53871,462.21870 C 194.04415,425.35223 182.31099,372.10947 224.99100,372.30049 C 267.67102,372.49151 255.46174,425.62712 276.63631,462.68461 C 297.81089,499.74210 349.78706,516.20227 328.28162,553.06873 z "
       transform="matrix(0.120864,0.000000,0.000000,-0.120864,214.0977,80.90800)"
       inkscape:randomized="0.0000000" />
    <text
       sodipodi:insensitive="true"
       xml:space="preserve"
       style="font-size:3.9790041;font-style:normal;font-variant:normal;font-weight:normal;font-stretch:normal;line-height:120.00000%;writing-mode:lr-tb;text-anchor:start;fill:#ffffff;fill-opacity:1.0000000;stroke:none;stroke-width:1.0000000pt;stroke-linecap:butt;stroke-linejoin:miter;stroke-opacity:1.0000000;font-family:sans-serif"
       x="236.78233"
       y="17.90111"
       id="text2598"
       sodipodi:linespacing="120.00000%"><tspan
         sodipodi:role="line"
         id="tspan2599"
         x="236.78233"
         y="17.901110" /><tspan
         id="tspan2601" /><tspan
         sodipodi:role="line"
         id="tspan2603"
         x="236.78233"
         y="22.675915">0.41</tspan></text>
    <text
       sodipodi:insensitive="true"
       xml:space="preserve"
       style="font-size:3.9790041;font-style:normal;font-variant:normal;font-weight:normal;font-stretch:normal;line-height:120.00000%;writing-mode:lr-tb;text-anchor:start;fill:#000000;fill-opacity:1.0000000;stroke:none;stroke-width:1.0000000pt;stroke-linecap:butt;stroke-linejoin:miter;stroke-opacity:1.0000000;font-family:sans-serif"
       x="21.764177"
       y="95.56311"
       id="text2909"
       sodipodi:linespacing="120.00000%"><tspan
         sodipodi:role="line"
         id="tspan2606"
         x="21.764177"
         y="100.33792">5.43</tspan><tspan
         id="tspan2608" /><tspan
         sodipodi:role="line"
         id="tspan2610"
         x="21.764177"
         y="100.33792" /></text>
    <text
       sodipodi:insensitive="true"
       xml:space="preserve"
       style="font-size:3.9790041;font-style:normal;font-variant:normal;font-weight:normal;font-stretch:normal;line-height:120.00000%;writing-mode:lr-tb;text-anchor:start;fill:#000000;fill-opacity:1.0000000;stroke:none;stroke-width:1.0000000pt;stroke-linecap:butt;stroke-linejoin:miter;stroke-opacity:1.0000000;font-family:sans-serif"
       x="63.424889"
       y="89.486107"
       id="text2613"
       sodipodi:linespacing="120.00000%"><tspan
         sodipodi:role="line"
         id="tspan2613"
         x="63.424889"
         y="89.486107" /><tspan
         id="tspan2615" /><tspan
         sodipodi:role="line"
         id="tspan2617"
         x="63.424889"
         y="94.260912">1.85</tspan></text>
    <text
       sodipodi:insensitive="true"
       xml:space="preserve"
       style="font-size:3.9790041;font-style:normal;font-variant:normal;font-weight:normal;font-stretch:normal;line-height:120.00000%;writing-mode:lr-tb;text-anchor:start;fill:#000000;fill-opacity:1.0000000;stroke:none;stroke-width:1.0000000pt;stroke-linecap:butt;stroke-linejoin:miter;stroke-opacity:1.0000000;font-family:sans-serif"
       x="62.71822"
       y="141.7691"
       id="text3240"
       sodipodi:linespacing="120.00000%"><tspan
         sodipodi:role="line"
         id="tspan3241"
         x="62.718220"
         y="141.76910" /><tspan
         id="tspan3243" /><tspan
         sodipodi:role="line"
         id="tspan3245"
         x="62.718220"
         y="146.54391">0.21</tspan></text>
    <text
       sodipodi:insensitive="true"
       xml:space="preserve"
       style="font-size:3.9789798;font-style:normal;font-variant:normal;font-weight:normal;font-stretch:normal;line-height:120.00000%;writing-mode:lr-tb;text-anchor:start;fill:#000000;fill-opacity:1.0000000;stroke:none;stroke-width:1.0000000pt;stroke-linecap:butt;stroke-linejoin:miter;stroke-opacity:1.0000000;font-family:sans-serif"
       x="106.78857"
       y="66.356537"
       id="text3868"
       transform="matrix(1.000000,-5.974290e-4,5.974290e-4,1.000000,0.000000,0.000000)"
       sodipodi:linespacing="120.00000%"><tspan
         sodipodi:role="line"
         id="tspan3869"
         x="106.78857"
         y="71.131313">-</tspan><tspan
         id="tspan3871" /><tspan
         id="tspan3873">3.00</tspan><tspan
         sodipodi:role="line"
         id="tspan3875"
         x="106.78857"
         y="71.131313" /></text>
    <path
       sodipodi:type="star"
       style="stroke-opacity:1.0000000;stroke-dashoffset:0.0000000;stroke-miterlimit:4.0000000;marker-end:none;marker-mid:none;marker-start:none;marker:none;stroke-linejoin:miter;stroke-linecap:butt;stroke-width:0.71101642;stroke:#000000;fill-rule:evenodd;fill-opacity:0.75000000;fill:#cecece;color:#000000"
       id="path4498"
       sodipodi:sides="9"
       sodipodi:cx="105.38494"
       sodipodi:cy="5142.4639"
       sodipodi:r1="46.149918"
       sodipodi:r2="18.172943"
       sodipodi:arg1="0.93231400"
       sodipodi:arg2="1.2813799"
       inkscape:flatsided="false"
       inkscape:rounded="-0.43000000"
       inkscape:randomized="0.0000000"
       d="M 132.88925,5179.5223 C 143.15471,5171.9034 98.319178,5163.5294 110.57137,5159.8810 C 122.82356,5156.2326 89.872629,5187.7696 102.63376,5188.5317 C 115.39489,5189.2938 86.431567,5154.0592 98.162455,5159.1399 C 109.89334,5164.2206 64.379851,5167.1990 73.665577,5175.9855 C 82.951303,5184.7720 83.412450,5139.1634 89.133020,5150.5960 C 94.853589,5162.0285 58.073810,5135.0545 59.539237,5147.7541 C 61.004664,5160.4537 90.674506,5125.8120 87.708039,5138.2469 C 84.741573,5150.6818 73.905173,5106.3769 66.864612,5117.0474 C 59.824050,5127.7178 104.81974,5120.2521 94.554278,5127.8710 C 84.288818,5135.4899 104.46627,5094.5849 92.214077,5098.2333 C 79.961884,5101.8817 119.22943,5125.0853 106.46830,5124.3232 C 93.707174,5123.5611 135.45722,5105.1959 123.72634,5100.1152 C 111.99545,5095.0345 127.16114,5138.0502 117.87541,5129.2637 C 108.58969,5120.4772 152.37702,5133.2451 146.65645,5121.8125 C 140.93588,5110.3800 124.90352,5153.0803 123.43809,5140.3807 C 121.97266,5127.6811 147.30870,5165.6078 150.27517,5153.1728 C 153.24164,5140.7379 113.51294,5163.1428 120.55350,5152.4724 C 127.59406,5141.8020 122.62379,5187.1412 132.88925,5179.5223 z "
       transform="matrix(0.503029,8.386162e-2,-8.386162e-2,0.503029,540.5811,-2474.824)" />
    <text
       sodipodi:insensitive="true"
       xml:space="preserve"
       style="font-size:3.9790041;font-style:normal;font-variant:normal;font-weight:normal;font-stretch:normal;line-height:120.00000%;writing-mode:lr-tb;text-anchor:start;fill:#000000;fill-opacity:1.0000000;stroke:none;stroke-width:1.0000000pt;stroke-linecap:butt;stroke-linejoin:miter;stroke-opacity:1.0000000;font-family:sans-serif"
       x="156.34573"
       y="122.21311"
       id="text4499"
       sodipodi:linespacing="120.00000%"><tspan
         sodipodi:role="line"
         id="tspan4500"
         x="156.34573"
         y="126.98792">-0.43</tspan><tspan
         id="tspan4502" /><tspan
         sodipodi:role="line"
         id="tspan4504"
         x="156.34573"
         y="126.98792" /></text>
    <path
       sodipodi:type="star"
       style="stroke-opacity:1.0000000;stroke-dashoffset:0.0000000;stroke-miterlimit:4.0000000;marker-end:none;marker-mid:none;marker-start:none;marker:none;stroke-linejoin:miter;stroke-linecap:butt;stroke-width:0.71101642;stroke:#000000;fill-rule:evenodd;fill-opacity:0.75000000;fill:#00edff;color:#000000"
       id="path5127"
       sodipodi:sides="5"
       sodipodi:cx="9.5541286"
       sodipodi:cy="5108.5903"
       sodipodi:r1="17.613136"
       sodipodi:r2="8.1117020"
       sodipodi:arg1="-2.7000003"
       sodipodi:arg2="-2.0716818"
       inkscape:flatsided="false"
       inkscape:rounded="-8.9362223"
       inkscape:randomized="0.0000000"
       d="M -6.3694195,5101.0628 C -52.334341,5198.2963 99.997690,5049.8290 5.6588697,5101.4751 C -88.679954,5153.1211 118.47105,5104.7884 11.792555,5091.1200 C -94.885938,5077.4516 93.388032,5176.4490 15.117425,5102.6870 C -63.153186,5028.9249 46.827114,5211.0016 26.861100,5105.3206 C 6.8950871,4999.6395 -29.077231,5209.2906 16.887694,5112.0571 C 62.852620,5014.8236 -76.326823,5175.6859 18.011999,5124.0398 C 112.35082,5072.3938 -98.155268,5102.9678 8.5232251,5116.6363 C 115.20172,5130.3047 -80.796204,5047.6464 -2.5255918,5121.4084 C 75.745018,5195.1704 -18.382580,5004.4152 1.5834303,5110.0962 C 21.549441,5215.7773 39.595504,5003.8293 -6.3694195,5101.0628 z "
       transform="matrix(0.306731,-4.267910e-2,4.267910e-2,0.306731,-195.0316,-1440.110)" />
    <text
       sodipodi:insensitive="true"
       xml:space="preserve"
       style="font-size:3.9790041;font-style:normal;font-variant:normal;font-weight:normal;font-stretch:normal;line-height:120.00000%;writing-mode:lr-tb;text-anchor:start;fill:#000000;fill-opacity:1.0000000;stroke:none;stroke-width:1.0000000pt;stroke-linecap:butt;stroke-linejoin:miter;stroke-opacity:1.0000000;font-family:sans-serif"
       x="21.20429"
       y="143.25011"
       id="text6108"
       sodipodi:linespacing="120.00000%"><tspan
         sodipodi:role="line"
         id="tspan5129"
         x="21.204290"
         y="148.02491">-8.94</tspan><tspan
         id="tspan5131" /><tspan
         sodipodi:role="line"
         id="tspan5133"
         x="21.204290"
         y="148.02491" /></text>
    <path
       sodipodi:type="star"
       style="stroke-opacity:1.0000000;stroke-dashoffset:0.0000000;stroke-miterlimit:4.0000000;marker-end:none;marker-mid:none;marker-start:none;marker:none;stroke-linejoin:miter;stroke-linecap:butt;stroke-width:0.75000000;stroke:none;fill-rule:evenodd;fill-opacity:1.0000000;fill:#000000;color:#000000"
       id="path5833"
       sodipodi:sides="4"
       sodipodi:cx="171.63371"
       sodipodi:cy="4696.8921"
       sodipodi:r1="45.711628"
       sodipodi:r2="32.323002"
       sodipodi:arg1="0.78539816"
       sodipodi:arg2="1.5707963"
       inkscape:flatsided="true"
       inkscape:rounded="0.39000000"
       inkscape:randomized="0.0000000"
       d="M 203.95671,4729.2151 C 186.12918,4747.0426 157.13825,4747.0426 139.31071,4729.2151 C 121.48318,4711.3876 121.48318,4682.3966 139.31071,4664.5691 C 157.13825,4646.7416 186.12918,4646.7416 203.95671,4664.5691 C 221.78425,4682.3966 221.78425,4711.3876 203.95671,4729.2151 z "
       transform="matrix(0.241306,0.000000,0.000000,0.241306,59.66014,-1049.710)" />
    <text
       sodipodi:insensitive="true"
       xml:space="preserve"
       style="font-size:3.9790041;font-style:normal;font-variant:normal;font-weight:normal;font-stretch:normal;line-height:120.00000%;writing-mode:lr-tb;text-anchor:start;fill:#ffffff;fill-opacity:1.0000000;stroke:none;stroke-width:1.0000000pt;stroke-linecap:butt;stroke-linejoin:miter;stroke-opacity:1.0000000;font-family:sans-serif"
       x="96.318428"
       y="80.288109"
       id="text5837"
       sodipodi:linespacing="120.00000%"><tspan
         sodipodi:role="line"
         id="tspan5838"
         x="96.318428"
         y="80.288109" /><tspan
         id="tspan5840" /><tspan
         sodipodi:role="line"
         id="tspan5842"
         x="96.318428"
         y="85.062914">0.39</tspan></text>
  </g>
</svg>
