<?xml version="1.0" encoding="UTF-8" standalone="no"?>
<!-- Created with Inkscape (http://www.inkscape.org/) -->
<svg
   xmlns:xml="http://www.w3.org/XML/1998/namespace"
   xmlns:dc="http://purl.org/dc/elements/1.1/"
   xmlns:cc="http://web.resource.org/cc/"
   xmlns:rdf="http://www.w3.org/1999/02/22-rdf-syntax-ns#"
   xmlns:svg="http://www.w3.org/2000/svg"
   xmlns="http://www.w3.org/2000/svg"
   xmlns:sodipodi="http://sodipodi.sourceforge.net/DTD/sodipodi-0.dtd"
   xmlns:inkscape="http://www.inkscape.org/namespaces/inkscape"
   sodipodi:docname="shapes-f19.svg"
   sodipodi:docbase="/home/aaron/notes/inkdoc/shapes"
   inkscape:version="0.41+cvs"
   sodipodi:version="0.32"
   id="svg2794"
   height="1052.3622047"
   width="744.09448819">
  <defs
     id="defs3" />
  <sodipodi:namedview
     inkscape:window-y="21"
     inkscape:window-x="0"
     inkscape:window-height="513"
     inkscape:window-width="753"
     inkscape:current-layer="layer1"
     inkscape:document-units="px"
     inkscape:cy="928.12108"
     inkscape:cx="213.57606"
     inkscape:zoom="1.4000000"
     inkscape:pageshadow="2"
     inkscape:pageopacity="0.0"
     borderopacity="1.0"
     bordercolor="#666666"
     pagecolor="#ffffff"
     id="base" />
  <metadata
     id="metadata4">
    <rdf:RDF
       id="RDF5">
      <cc:Work
         id="Work6"
         rdf:about="">
        <dc:format
           id="format7">image/svg+xml</dc:format>
        <dc:type
           rdf:resource="http://purl.org/dc/dcmitype/StillImage"
           id="type9" />
      </cc:Work>
    </rdf:RDF>
  </metadata>
  <g
     id="layer1"
     inkscape:groupmode="layer"
     inkscape:label="Layer 1">
    <text
       sodipodi:insensitive="true"
       sodipodi:linespacing="120.00000%"
       id="text2848"
       y="-2.4563127"
       x="274.15491"
       style="font-size:5.3650379;font-style:normal;font-variant:normal;font-weight:normal;font-stretch:normal;line-height:120.00000%;writing-mode:lr-tb;text-anchor:start;fill:#000000;fill-opacity:1.0000000;stroke:none;stroke-width:1.0000000pt;stroke-linecap:butt;stroke-linejoin:miter;stroke-opacity:1.0000000;font-family:sans-serif"
       xml:space="preserve"><tspan
         y="-2.4563127"
         x="274.15491"
         id="tspan2849"
         sodipodi:role="line" /><tspan
         id="tspan2851" /><tspan
         y="3.9817331"
         x="274.15491"
         id="tspan2853"
         sodipodi:role="line">+0.2</tspan></text>
    <text
       sodipodi:insensitive="true"
       sodipodi:linespacing="120.00000%"
       id="text2841"
       y="-2.4563127"
       x="212.89142"
       style="font-size:5.3650379;font-style:normal;font-variant:normal;font-weight:normal;font-stretch:normal;line-height:120.00000%;writing-mode:lr-tb;text-anchor:start;fill:#000000;fill-opacity:1.0000000;stroke:none;stroke-width:1.0000000pt;stroke-linecap:butt;stroke-linejoin:miter;stroke-opacity:1.0000000;font-family:sans-serif"
       xml:space="preserve"><tspan
         y="-2.4563127"
         x="212.89142"
         id="tspan2842"
         sodipodi:role="line" /><tspan
         id="tspan2844" /><tspan
         y="3.9817331"
         x="212.89142"
         id="tspan2846"
         sodipodi:role="line">+0.1</tspan></text>
    <text
       sodipodi:insensitive="true"
       sodipodi:linespacing="120.00000%"
       id="text2833"
       y="4.1156874"
       x="151.42322"
       style="font-size:5.3650379;font-style:normal;font-variant:normal;font-weight:normal;font-stretch:normal;line-height:120.00000%;writing-mode:lr-tb;text-anchor:start;fill:#000000;fill-opacity:1.0000000;stroke:none;stroke-width:1.0000000pt;stroke-linecap:butt;stroke-linejoin:miter;stroke-opacity:1.0000000;font-family:sans-serif"
       xml:space="preserve"><tspan
         y="10.553733"
         x="151.42322"
         id="tspan2835"
         sodipodi:role="line">0</tspan><tspan
         id="tspan2837" /><tspan
         y="10.553733"
         x="151.42322"
         id="tspan2839"
         sodipodi:role="line" /></text>
    <text
       sodipodi:insensitive="true"
       sodipodi:linespacing="120.00000%"
       id="text2814"
       y="4.1156874"
       x="83.021225"
       style="font-size:5.3650379;font-style:normal;font-variant:normal;font-weight:normal;font-stretch:normal;line-height:120.00000%;writing-mode:lr-tb;text-anchor:start;fill:#000000;fill-opacity:1.0000000;stroke:none;stroke-width:1.0000000pt;stroke-linecap:butt;stroke-linejoin:miter;stroke-opacity:1.0000000;font-family:sans-serif"
       xml:space="preserve"><tspan
         y="10.553733"
         x="83.021225"
         id="tspan2821"
         sodipodi:role="line">-0.1</tspan><tspan
         id="tspan2829" /><tspan
         y="10.553733"
         x="83.021225"
         id="tspan2831"
         sodipodi:role="line" /></text>
    <text
       sodipodi:insensitive="true"
       sodipodi:linespacing="120.00000%"
       id="text2805"
       y="4.1156874"
       x="26.32832"
       style="font-size:5.3650379;font-style:normal;font-variant:normal;font-weight:normal;font-stretch:normal;line-height:120.00000%;writing-mode:lr-tb;text-anchor:start;fill:#000000;fill-opacity:1.0000000;stroke:none;stroke-width:1.0000000pt;stroke-linecap:butt;stroke-linejoin:miter;stroke-opacity:1.0000000;font-family:sans-serif"
       xml:space="preserve"><tspan
         y="10.553733"
         x="26.328320"
         id="tspan2807"
         sodipodi:role="line">-0.2</tspan><tspan
         id="tspan2809" /><tspan
         y="10.553733"
         x="26.328320"
         id="tspan2811"
         sodipodi:role="line" /></text>
    <path
       transform="matrix(0.847225,0.000000,0.000000,0.847225,190.1905,-4686.543)"
       d="M 62.486956,5591.0579 C 59.903014,5594.3477 42.691510,5586.3135 39.362099,5588.5203 C 36.151073,5590.6486 40.762947,5604.2733 36.805763,5605.2530 C 32.702683,5606.2688 35.468063,5592.5582 31.676502,5591.4451 C 28.019759,5590.3715 12.608298,5599.8286 10.185357,5596.6903 C 7.6730860,5593.4362 20.889364,5582.8872 19.641771,5578.9068 C 18.438540,5575.0679 0.13004800,5578.8427 1.1799116,5574.9891 C 2.2684822,5570.9933 16.161098,5569.3149 18.500026,5565.9361 C 20.755787,5562.6775 11.645708,5551.8549 15.102032,5549.8426 C 18.685786,5547.7560 30.504598,5559.2299 34.582355,5559.2998 C 38.515117,5559.3672 41.089737,5545.3669 44.479968,5547.1595 C 47.995193,5549.0183 40.323831,5561.9148 43.383645,5564.4249 C 46.334659,5566.8457 60.878032,5558.1360 62.456044,5561.6963 C 64.092236,5565.3878 48.490933,5572.8371 47.674030,5576.7584 C 46.886174,5580.5402 64.979019,5587.8851 62.486956,5591.0579 z "
       inkscape:randomized="0.10000000"
       inkscape:rounded="0.22000000"
       inkscape:flatsided="false"
       sodipodi:arg2="1.0163215"
       sodipodi:arg1="0.53837452"
       sodipodi:r2="15.230559"
       sodipodi:r1="30.461117"
       sodipodi:cy="5574.6763"
       sodipodi:cx="34.143131"
       sodipodi:sides="7"
       id="path2797"
       style="stroke-opacity:0.23692299;stroke-dashoffset:0.0000000;stroke-miterlimit:4.0000000;marker-end:none;marker-mid:none;marker-start:none;marker:none;stroke-linejoin:miter;stroke-linecap:butt;stroke-width:1.0184744pt;stroke:none;fill-rule:evenodd;fill-opacity:1.0000000;fill:#ff6c2e;color:#000000"
       sodipodi:type="star" />
    <path
       transform="matrix(0.847225,0.000000,0.000000,0.847225,126.4111,-4686.543)"
       d="M 60.295318,5590.2949 C 58.127720,5593.6951 45.526845,5585.4029 42.161973,5587.6249 C 38.916749,5589.7680 42.104864,5604.4508 38.237587,5604.8610 C 34.227729,5605.2862 32.854345,5590.2644 29.019118,5589.0190 C 25.320263,5587.8180 15.828540,5599.4651 13.096648,5596.6973 C 10.264034,5593.8274 21.152327,5583.3877 19.734749,5579.6127 C 18.367577,5575.9720 3.3434768,5575.8129 3.8041395,5571.9513 C 4.2817861,5567.9474 19.232650,5569.9511 21.300186,5566.4892 C 23.294205,5563.1503 14.051181,5551.3048 17.357511,5549.2573 C 20.785740,5547.1343 28.540870,5560.0727 32.536623,5559.5307 C 36.390296,5559.0079 39.888534,5544.3959 43.550797,5545.7043 C 47.348082,5547.0609 42.067706,5561.1911 44.982793,5563.9771 C 47.794226,5566.6641 61.399481,5560.2887 62.659919,5563.9677 C 63.966827,5567.7824 49.627176,5572.4641 49.266477,5576.4803 C 48.918603,5580.3536 62.385841,5587.0156 60.295318,5590.2949 z "
       inkscape:randomized="0.0000000"
       inkscape:rounded="0.22000000"
       inkscape:flatsided="false"
       sodipodi:arg2="1.0163215"
       sodipodi:arg1="0.53837452"
       sodipodi:r2="15.230559"
       sodipodi:r1="30.461117"
       sodipodi:cy="5574.6763"
       sodipodi:cx="34.143131"
       sodipodi:sides="7"
       id="path2798"
       style="stroke-opacity:0.23692299;stroke-dashoffset:0.0000000;stroke-miterlimit:4.0000000;marker-end:none;marker-mid:none;marker-start:none;marker:none;stroke-linejoin:miter;stroke-linecap:butt;stroke-width:1.0184744pt;stroke:none;fill-rule:evenodd;fill-opacity:1.0000000;fill:#ff6c2e;color:#000000"
       sodipodi:type="star" />
    <path
       transform="matrix(0.847225,0.000000,0.000000,0.847225,253.9699,-4686.543)"
       d="M 64.678594,5591.8209 C 61.679958,5594.9503 39.856237,5587.2243 36.562224,5589.4157 C 33.385338,5591.5291 39.334529,5604.0644 35.373939,5605.6450 C 31.267327,5607.2839 38.077428,5594.8556 34.333885,5593.8712 C 30.723454,5592.9217 9.3378510,5600.1571 7.2740663,5596.6832 C 5.1341929,5593.0813 20.607846,5582.3792 19.548793,5578.2009 C 18.527397,5574.1713 -3.0904292,5581.7810 -1.4443162,5578.0268 C 0.26248669,5574.1341 13.091590,5568.6576 15.699865,5565.3831 C 18.215396,5562.2251 9.2397706,5552.3983 12.846554,5550.4278 C 16.586313,5548.3847 32.562547,5558.3748 36.628088,5559.0689 C 40.549068,5559.7383 42.353205,5546.3882 45.409140,5548.6148 C 48.577742,5550.9234 38.604678,5562.6443 41.784497,5564.8727 C 44.851249,5567.0219 60.367705,5556.0107 62.252170,5559.4248 C 64.206113,5562.9648 47.337659,5573.2615 46.081583,5577.0365 C 44.870170,5580.6774 67.570605,5588.8029 64.678594,5591.8209 z "
       inkscape:randomized="0.20000000"
       inkscape:rounded="0.22000000"
       inkscape:flatsided="false"
       sodipodi:arg2="1.0163215"
       sodipodi:arg1="0.53837452"
       sodipodi:r2="15.230559"
       sodipodi:r1="30.461117"
       sodipodi:cy="5574.6763"
       sodipodi:cx="34.143131"
       sodipodi:sides="7"
       id="path2799"
       style="stroke-opacity:0.23692299;stroke-dashoffset:0.0000000;stroke-miterlimit:4.0000000;marker-end:none;marker-mid:none;marker-start:none;marker:none;stroke-linejoin:miter;stroke-linecap:butt;stroke-width:1.0184744pt;stroke:none;fill-rule:evenodd;fill-opacity:1.0000000;fill:#ff6c2e;color:#000000"
       sodipodi:type="star" />
    <path
       transform="matrix(0.847225,0.000000,0.000000,0.847225,59.08828,-4686.543)"
       d="M 58.103680,5589.5319 C 56.348378,5592.9938 48.362241,5584.4924 44.961848,5586.7296 C 41.682365,5588.8872 43.368881,5604.5850 39.669411,5604.4689 C 35.833548,5604.3486 30.236112,5587.9739 26.361734,5586.5930 C 22.625120,5585.2611 18.995498,5599.0738 16.007938,5596.7043 C 12.910231,5594.2475 21.396491,5583.8819 19.827727,5580.3186 C 18.314745,5576.8820 6.5362379,5572.6959 6.4283673,5568.9136 C 6.3165196,5564.9919 22.304650,5570.5664 24.100346,5567.0422 C 25.832192,5563.6432 16.455937,5550.7481 19.612990,5548.6721 C 22.886438,5546.5195 26.667362,5560.8892 30.490890,5559.7616 C 34.178462,5558.6740 38.757188,5543.4662 42.621626,5544.2490 C 46.628539,5545.0607 43.836113,5560.4751 46.581941,5563.5293 C 49.230134,5566.4750 61.929613,5562.4696 62.863793,5566.2392 C 63.832415,5570.1478 50.752395,5572.1443 50.858924,5576.2021 C 50.961665,5580.1157 59.796568,5586.1931 58.103680,5589.5319 z "
       inkscape:randomized="-0.10000000"
       inkscape:rounded="0.22000000"
       inkscape:flatsided="false"
       sodipodi:arg2="1.0163215"
       sodipodi:arg1="0.53837452"
       sodipodi:r2="15.230559"
       sodipodi:r1="30.461117"
       sodipodi:cy="5574.6763"
       sodipodi:cx="34.143131"
       sodipodi:sides="7"
       id="path2800"
       style="stroke-opacity:0.23692299;stroke-dashoffset:0.0000000;stroke-miterlimit:4.0000000;marker-end:none;marker-mid:none;marker-start:none;marker:none;stroke-linejoin:miter;stroke-linecap:butt;stroke-width:1.0184744pt;stroke:none;fill-rule:evenodd;fill-opacity:1.0000000;fill:#ff6c2e;color:#000000"
       sodipodi:type="star" />
    <path
       transform="matrix(0.847225,0.000000,0.000000,0.847225,2.395329,-4686.543)"
       d="M 55.912042,5588.7689 C 54.559567,5592.2457 51.197698,5583.5820 47.761723,5585.8342 C 44.447922,5588.0064 44.565157,5604.6657 41.101236,5604.0769 C 37.509605,5603.4664 27.613211,5585.6866 23.704350,5584.1669 C 19.934480,5582.7012 22.107066,5598.6620 18.919229,5596.7113 C 15.613861,5594.6887 21.621713,5584.3714 19.920705,5581.0245 C 18.280181,5577.7966 9.6958226,5569.4979 9.0525951,5565.8759 C 8.3856527,5562.1204 25.375537,5571.1612 26.900507,5567.5952 C 28.371252,5564.1560 18.859728,5550.1848 21.868468,5548.0868 C 24.988136,5545.9115 24.878038,5561.6663 28.445157,5559.9924 C 31.885438,5558.3781 37.701968,5542.5677 41.692454,5542.7938 C 45.830064,5543.0282 45.628678,5559.7691 48.181089,5563.0815 C 50.642743,5566.2762 62.465928,5564.6794 63.067668,5568.5107 C 63.691592,5572.4832 51.872826,5571.8790 52.451371,5575.9240 C 53.009344,5579.8251 57.216426,5585.4158 55.912042,5588.7689 z "
       inkscape:randomized="-0.20000000"
       inkscape:rounded="0.22000000"
       inkscape:flatsided="false"
       sodipodi:arg2="1.0163215"
       sodipodi:arg1="0.53837452"
       sodipodi:r2="15.230559"
       sodipodi:r1="30.461117"
       sodipodi:cy="5574.6763"
       sodipodi:cx="34.143131"
       sodipodi:sides="7"
       id="path2801"
       style="stroke-opacity:0.23692299;stroke-dashoffset:0.0000000;stroke-miterlimit:4.0000000;marker-end:none;marker-mid:none;marker-start:none;marker:none;stroke-linejoin:miter;stroke-linecap:butt;stroke-width:1.0184744pt;stroke:none;fill-rule:evenodd;fill-opacity:1.0000000;fill:#ff6c2e;color:#000000"
       sodipodi:type="star" />
  </g>
</svg>
