<?xml version="1.0" encoding="UTF-8" standalone="no"?>
<!-- Created with Inkscape (http://www.inkscape.org/) -->
<svg
   xmlns:dc="http://purl.org/dc/elements/1.1/"
   xmlns:cc="http://web.resource.org/cc/"
   xmlns:rdf="http://www.w3.org/1999/02/22-rdf-syntax-ns#"
   xmlns:svg="http://www.w3.org/2000/svg"
   xmlns="http://www.w3.org/2000/svg"
   xmlns:sodipodi="http://sodipodi.sourceforge.net/DTD/sodipodi-0.dtd"
   xmlns:inkscape="http://www.inkscape.org/namespaces/inkscape"
   width="744.09448819"
   height="1052.3622047"
   id="svg15699"
   sodipodi:version="0.32"
   inkscape:version="0.45+devel"
   sodipodi:docbase="C:\Documents and Settings\ryan\Desktop\tut"
   sodipodi:docname="interpolate-f17.svg"
   inkscape:output_extension="org.inkscape.output.svg.inkscape">
  <defs
     id="defs15701" />
  <sodipodi:namedview
     id="base"
     pagecolor="#ffffff"
     bordercolor="#666666"
     borderopacity="1.0"
     gridtolerance="10000"
     guidetolerance="10"
     objecttolerance="10"
     inkscape:pageopacity="0.0"
     inkscape:pageshadow="2"
     inkscape:zoom="1.4"
     inkscape:cx="119.59622"
     inkscape:cy="1025.9268"
     inkscape:document-units="px"
     inkscape:current-layer="layer1"
     inkscape:window-width="744"
     inkscape:window-height="664"
     inkscape:window-x="501"
     inkscape:window-y="198" />
  <metadata
     id="metadata15704">
    <rdf:RDF>
      <cc:Work
         rdf:about="">
        <dc:format>image/svg+xml</dc:format>
        <dc:type
           rdf:resource="http://purl.org/dc/dcmitype/StillImage" />
      </cc:Work>
    </rdf:RDF>
  </metadata>
  <g
     inkscape:label="Layer 1"
     inkscape:groupmode="layer"
     id="layer1">
    <g
       id="g2850"
       transform="translate(-20.688595,-14.421848)">
      <path
         id="path14293"
         d="M 52.29046,44.870068 C 49.292827,47.774768 48.783381,39.443168 45.169795,41.677668 C 41.484872,43.956268 46.302371,49.618968 41.942137,50.147168 C 37.66631,50.665168 43.486226,43.187168 39.264426,42.617468 C 34.959283,42.036568 35.433407,49.889568 31.356564,48.307668 C 27.358644,46.756468 35.894643,42.591768 32.986185,39.436668 C 30.02031,36.219268 26.772891,45.159168 24.523298,41.398468 C 22.317254,37.710568 30.091356,38.844168 29.482058,34.712768 C 28.860732,30.499868 21.079193,34.508868 21.45174,30.268668 C 21.817076,26.110668 29.467072,33.016068 31.352349,29.206268 C 33.274843,25.321268 24.399105,24.533868 27.075635,21.308868 C 29.70035,18.146268 31.746413,25.887268 35.446417,23.673168 C 39.219463,21.415368 32.739701,16.235168 36.90462,15.246768 C 40.988911,14.277468 37.088295,23.049068 41.254674,23.532468 C 45.5033,24.025268 44.07936,15.055868 47.914208,16.859668 C 51.674819,18.628568 44.301129,23.340068 47.080354,26.489568 C 49.914445,29.701268 52.667686,20.661368 54.84274,24.389068 C 56.975687,28.044668 49.327518,27.623868 49.979273,31.890668 C 50.643894,36.241568 58.857614,32.114968 58.0078,36.377668 C 57.174438,40.557968 49.635605,32.621668 48.013688,36.581268 C 46.359754,40.619068 55.347268,41.908068 52.29046,44.870068 z"
         style="fill:#ffcc00;fill-opacity:1;stroke:#000000;stroke-width:1.50038075;stroke-linejoin:round;stroke-miterlimit:4;stroke-dasharray:none;stroke-opacity:1" />
      <path
         id="path14295"
         d="M 277.068,47.106668 C 274.07037,50.011368 273.56092,41.679768 269.94733,43.914268 C 266.26241,46.192868 271.07991,51.855568 266.71968,52.383768 C 262.44385,52.901768 268.26377,45.423768 264.04197,44.854068 C 259.73682,44.273068 260.21095,52.126168 256.1341,50.544268 C 252.13618,48.993068 260.67218,44.828368 257.76373,41.673268 C 254.79785,38.455768 251.55043,47.395768 249.30084,43.635068 C 247.09479,39.947168 254.86889,41.080768 254.2596,36.949368 C 253.63827,32.736468 245.85673,36.745468 246.22928,32.505268 C 246.59462,28.347168 254.24461,35.252568 256.12989,31.442868 C 258.05238,27.557868 249.17664,26.770468 251.85318,23.545468 C 254.47789,20.382868 256.52395,28.123868 260.22396,25.909768 C 263.997,23.651968 257.51724,18.471768 261.68216,17.483268 C 265.76645,16.514068 261.86583,25.285668 266.03221,25.768968 C 270.28084,26.261868 268.8569,17.292368 272.69175,19.096268 C 276.45236,20.865168 269.07867,25.576668 271.8579,28.726168 C 274.69199,31.937868 277.44522,22.897968 279.62028,26.625668 C 281.75323,30.281168 274.10506,29.860468 274.75681,34.127268 C 275.42144,38.478168 283.63515,34.351568 282.78534,38.614268 C 281.95198,42.794568 274.41315,34.858268 272.79123,38.817868 C 271.1373,42.855668 280.12481,44.144668 277.068,47.106668 z"
         style="fill:#d40000;fill-opacity:1;stroke:#ededed;stroke-width:1.50038075;stroke-linejoin:round;stroke-miterlimit:4;stroke-dasharray:none;stroke-opacity:1" />
      <g
         transform="matrix(0.5218716,0,0,0.5218716,16.367493,-843.97546)"
         id="g14449">
        <path
           style="opacity:1;fill:#f8ae00;fill-opacity:1;stroke:#212121;stroke-width:2.875;stroke-linejoin:round;stroke-miterlimit:4;stroke-dasharray:none;stroke-opacity:1"
           d="M 130.3655,1703.8005 C 124.62149,1709.3665 123.6453,1693.4015 116.72102,1697.6832 C 116.72083,1697.6834 116.72065,1697.6835 116.72046,1697.6836 C 109.66052,1702.0501 118.89102,1712.9003 110.53624,1713.9123 C 110.53621,1713.9123 110.53617,1713.9124 110.53613,1713.9124 C 102.34308,1714.9048 113.49496,1700.5758 105.40526,1699.4841 C 105.40523,1699.4841 105.40519,1699.4841 105.40516,1699.4841 C 97.155843,1698.3711 98.064309,1713.4188 90.252376,1710.3876 C 90.252343,1710.3876 90.252309,1710.3876 90.252276,1710.3876 C 82.591781,1707.4151 98.948129,1699.4349 93.375023,1693.3891 C 93.374874,1693.389 93.374726,1693.3888 93.374577,1693.3887 C 87.691546,1687.2248 81.469119,1704.3544 77.158605,1697.1483 C 77.158495,1697.1482 77.158384,1697.148 77.158274,1697.1478 C 72.932206,1690.0818 87.827977,1692.2535 86.660485,1684.3373 C 86.660453,1684.3371 86.660422,1684.3369 86.660391,1684.3367 C 85.469132,1676.265 70.559098,1683.9463 71.272947,1675.8216 C 71.272965,1675.8214 71.272984,1675.8212 71.273002,1675.821 C 71.973762,1667.8547 86.631862,1681.0859 90.244298,1673.7858 C 90.244394,1673.7856 90.244491,1673.7855 90.244587,1673.7853 C 93.927255,1666.3415 76.920763,1664.8326 82.049344,1658.653 C 82.049475,1658.6529 82.049607,1658.6527 82.049738,1658.6526 C 87.078976,1652.5937 90.999583,1667.426 98.089272,1663.1834 C 98.089461,1663.1833 98.08965,1663.1832 98.089839,1663.1831 C 105.31846,1658.8565 92.902924,1648.9308 100.88345,1647.0368 C 100.88366,1647.0368 100.88386,1647.0367 100.88407,1647.0367 C 108.7093,1645.1804 101.23561,1661.9877 109.21894,1662.9137 C 109.21915,1662.9138 109.21936,1662.9138 109.21958,1662.9138 C 117.35993,1663.8572 114.63174,1646.6711 121.97981,1650.1275 C 121.98,1650.1276 121.98019,1650.1277 121.98037,1650.1278 C 129.18508,1653.5176 115.05664,1662.5454 120.38199,1668.5802 C 120.38214,1668.5804 120.38228,1668.5806 120.38242,1668.5807 C 125.8129,1674.7334 131.08844,1657.4124 135.25613,1664.5552 C 135.25623,1664.5554 135.25634,1664.5556 135.25645,1664.5558 C 139.34247,1671.5599 124.688,1670.754 125.93685,1678.9296 C 125.93685,1678.9297 125.93686,1678.9297 125.93686,1678.9298 C 127.21052,1687.2668 142.94934,1679.3596 141.32095,1687.5276 C 141.32091,1687.5279 141.32087,1687.5281 141.32083,1687.5283 C 139.72332,1695.5369 125.27823,1680.3305 122.17043,1687.9176 C 122.17035,1687.9178 122.17027,1687.918 122.17018,1687.9183 C 119.0021,1695.655 136.22274,1698.1249 130.3655,1703.8005 C 130.3655,1703.8005 130.3655,1703.8005 130.3655,1703.8005"
           id="path14451" />
        <path
           style="opacity:1;fill:#f29100;fill-opacity:1;stroke:#434343;stroke-width:2.875;stroke-linejoin:round;stroke-miterlimit:4;stroke-dasharray:none;stroke-opacity:1"
           d="M 191.89611,1704.4128 C 186.15211,1709.9788 185.17592,1694.0138 178.25163,1698.2955 C 178.25147,1698.2956 178.25132,1698.2957 178.25117,1698.2958 C 171.19106,1702.6623 180.42167,1713.5125 172.06686,1714.5246 C 172.06678,1714.5246 172.06671,1714.5246 172.06664,1714.5246 C 163.87379,1715.5169 175.02554,1701.1881 166.93588,1700.0964 C 166.93581,1700.0964 166.93573,1700.0964 166.93566,1700.0964 C 158.68646,1698.9834 159.59489,1714.0311 151.78299,1710.9999 C 151.78292,1710.9999 151.78285,1710.9998 151.78279,1710.9998 C 144.12254,1708.0272 160.47872,1700.0471 154.90564,1694.0014 C 154.90551,1694.0013 154.90539,1694.0011 154.90526,1694.001 C 149.22221,1687.8369 142.99975,1704.9666 138.68922,1697.7606 C 138.68913,1697.7604 138.68903,1697.7603 138.68894,1697.7601 C 134.46269,1690.694 149.35859,1692.8658 148.1911,1684.9496 C 148.19107,1684.9494 148.19105,1684.9492 148.19102,1684.9491 C 146.99987,1676.8772 132.08971,1684.5586 132.80356,1676.4339 C 132.80357,1676.4337 132.80359,1676.4335 132.8036,1676.4334 C 133.50425,1668.4669 148.16246,1681.6981 151.77491,1674.3981 C 151.77499,1674.3979 151.77507,1674.3978 151.77515,1674.3976 C 155.45802,1666.9537 138.45135,1665.4449 143.57996,1659.2653 C 143.58007,1659.2652 143.58018,1659.265 143.58029,1659.2649 C 148.60956,1653.2058 152.53016,1668.0383 159.61989,1663.7957 C 159.62004,1663.7956 159.6202,1663.7955 159.62036,1663.7954 C 166.84918,1659.4689 154.4335,1649.543 162.41406,1647.6491 C 162.41423,1647.649 162.41441,1647.649 162.41458,1647.649 C 170.23997,1645.7925 162.76619,1662.5999 170.74955,1663.526 C 170.74973,1663.526 170.7499,1663.526 170.75008,1663.526 C 178.89057,1664.4696 176.16232,1647.2834 183.51042,1650.7398 C 183.51058,1650.7399 183.51073,1650.7399 183.51089,1650.74 C 190.71581,1654.1298 176.58722,1663.1576 181.91261,1669.1925 C 181.91273,1669.1926 181.91284,1669.1928 181.91296,1669.1929 C 187.34347,1675.3458 192.61903,1658.0246 196.78674,1665.1675 C 196.78683,1665.1676 196.78692,1665.1678 196.78701,1665.1679 C 200.87321,1672.1722 186.21861,1671.3662 187.46746,1679.5419 C 187.46747,1679.542 187.46748,1679.542 187.46749,1679.5421 C 188.74127,1687.8789 204.47995,1679.9719 202.85156,1688.1399 C 202.85153,1688.1401 202.8515,1688.1402 202.85146,1688.1404 C 201.25406,1696.1493 186.80886,1680.9428 183.70104,1688.5299 C 183.70098,1688.5301 183.70091,1688.5302 183.70084,1688.5304 C 180.53256,1696.2672 197.75338,1698.7371 191.89611,1704.4128 C 191.89611,1704.4128 191.89611,1704.4128 191.89611,1704.4128"
           id="path14453" />
        <path
           style="opacity:1;fill:#ec7400;fill-opacity:1;stroke:#656565;stroke-width:2.875;stroke-linejoin:round;stroke-miterlimit:4;stroke-dasharray:none;stroke-opacity:1"
           d="M 253.42672,1705.025 C 247.68272,1710.591 246.70653,1694.626 239.78224,1698.9077 C 239.78212,1698.9078 239.78199,1698.9079 239.78187,1698.908 C 232.72159,1703.2744 241.95232,1714.1247 233.59747,1715.1368 C 233.59736,1715.1368 233.59725,1715.1369 233.59715,1715.1369 C 225.4045,1716.1291 236.55611,1701.8003 228.46649,1700.7086 C 228.46638,1700.7086 228.46627,1700.7086 228.46617,1700.7086 C 220.21708,1699.5958 221.12547,1714.6433 213.3136,1711.6121 C 213.3135,1711.6121 213.3134,1711.6121 213.3133,1711.612 C 205.65329,1708.6394 222.00931,1700.6593 216.43625,1694.6136 C 216.43615,1694.6135 216.43605,1694.6134 216.43595,1694.6133 C 210.75288,1688.449 204.53038,1705.5789 200.21983,1698.3728 C 200.21976,1698.3727 200.21968,1698.3726 200.21961,1698.3725 C 195.99317,1691.3062 210.88921,1693.4781 209.72171,1685.5618 C 209.72169,1685.5617 209.72167,1685.5615 209.72165,1685.5614 C 208.53062,1677.4894 193.62032,1685.1709 194.33417,1677.0461 C 194.33418,1677.046 194.3342,1677.0459 194.33421,1677.0457 C 195.03473,1669.079 209.69305,1682.3104 213.30552,1675.0103 C 213.30559,1675.0102 213.30565,1675.0101 213.30571,1675.0099 C 216.98878,1667.566 199.98194,1666.0571 205.11057,1659.8775 C 205.11066,1659.8774 205.11074,1659.8773 205.11083,1659.8772 C 210.14013,1653.8179 214.06075,1668.6506 221.1505,1664.4079 C 221.15062,1664.4079 221.15075,1664.4078 221.15088,1664.4077 C 228.3799,1660.0812 215.96408,1650.1553 223.94468,1648.2613 C 223.94481,1648.2613 223.94495,1648.2613 223.94509,1648.2612 C 231.77065,1646.4046 224.29677,1663.2121 232.28016,1664.1382 C 232.2803,1664.1382 232.28045,1664.1383 232.28059,1664.1383 C 240.4212,1665.082 237.6929,1647.8956 245.04103,1651.352 C 245.04116,1651.3521 245.04128,1651.3521 245.04141,1651.3522 C 252.24655,1654.7419 238.11781,1663.7698 243.44322,1669.8047 C 243.44331,1669.8048 243.44341,1669.8049 243.4435,1669.8051 C 248.87403,1675.9582 254.14963,1658.6369 258.31735,1665.7797 C 258.31742,1665.7799 258.31749,1665.78 258.31756,1665.7801 C 262.40395,1672.7844 247.74921,1671.9784 248.99807,1680.1541 C 248.99809,1680.1542 248.9981,1680.1543 248.99812,1680.1545 C 250.27202,1688.4911 266.01055,1680.5841 264.38218,1688.7521 C 264.38215,1688.7523 264.38212,1688.7524 264.38209,1688.7525 C 262.7848,1696.7617 248.33949,1681.555 245.23166,1689.1421 C 245.2316,1689.1423 245.23155,1689.1424 245.23149,1689.1425 C 242.06302,1696.8794 259.28402,1699.3493 253.42672,1705.025 C 253.42672,1705.025 253.42672,1705.025 253.42672,1705.025"
           id="path14455" />
        <path
           style="opacity:1;fill:#e65700;fill-opacity:1;stroke:#878787;stroke-width:2.875;stroke-linejoin:round;stroke-miterlimit:4;stroke-dasharray:none;stroke-opacity:1"
           d="M 314.95733,1705.6373 C 309.21333,1711.2033 308.23714,1695.2383 301.31285,1699.52 C 301.31276,1699.52 301.31267,1699.5201 301.31258,1699.5201 C 294.25212,1703.8866 303.48296,1714.737 295.12808,1715.7491 C 295.12794,1715.7491 295.1278,1715.7491 295.12765,1715.7491 C 286.93521,1716.7412 298.08669,1702.4126 289.9971,1701.3209 C 289.99696,1701.3209 289.99681,1701.3208 289.99667,1701.3208 C 281.7477,1700.2082 282.65605,1715.2555 274.84421,1712.2244 C 274.84408,1712.2243 274.84395,1712.2243 274.84381,1712.2242 C 267.18404,1709.2516 283.53989,1701.2716 277.96686,1695.2259 C 277.96679,1695.2258 277.96671,1695.2257 277.96664,1695.2256 C 272.28355,1689.0611 266.06101,1706.1912 261.75044,1698.9851 C 261.75039,1698.985 261.75033,1698.9849 261.75028,1698.9848 C 257.52365,1691.9184 272.41983,1694.0904 271.25232,1686.1741 C 271.25231,1686.174 271.25229,1686.1739 271.25228,1686.1738 C 270.06136,1678.1016 255.15092,1685.7832 255.86478,1677.6584 C 255.86479,1677.6583 255.8648,1677.6582 255.86481,1677.6581 C 256.56522,1669.6911 271.22365,1682.9227 274.83613,1675.6226 C 274.83618,1675.6225 274.83623,1675.6224 274.83628,1675.6223 C 278.51954,1668.1782 261.51253,1666.6694 266.64118,1660.4898 C 266.64125,1660.4897 266.64131,1660.4896 266.64138,1660.4895 C 271.67071,1654.4301 275.59133,1669.2628 282.68111,1665.0202 C 282.68121,1665.0201 282.6813,1665.0201 282.68139,1665.02 C 289.91062,1660.6935 277.49466,1650.7675 285.47529,1648.8736 C 285.47539,1648.8735 285.4755,1648.8735 285.4756,1648.8735 C 293.30133,1647.0167 285.82735,1663.8244 293.81077,1664.7505 C 293.81088,1664.7505 293.81099,1664.7505 293.81109,1664.7505 C 301.95184,1665.6944 299.22348,1648.5078 306.57164,1651.9643 C 306.57174,1651.9643 306.57183,1651.9644 306.57193,1651.9644 C 313.77728,1655.3541 299.6484,1664.3821 304.97383,1670.417 C 304.9739,1670.4171 304.97397,1670.4171 304.97405,1670.4172 C 310.4046,1676.5706 315.68022,1659.2491 319.84796,1666.392 C 319.84802,1666.3921 319.84807,1666.3922 319.84812,1666.3922 C 323.93469,1673.3967 309.27982,1672.5906 310.52868,1680.7664 C 310.52871,1680.7665 310.52873,1680.7667 310.52875,1680.7668 C 311.80277,1689.1033 327.54116,1681.1964 325.91279,1689.3644 C 325.91277,1689.3645 325.91275,1689.3646 325.91273,1689.3647 C 324.31554,1697.3741 309.87011,1682.1672 306.76227,1689.7544 C 306.76223,1689.7545 306.76219,1689.7546 306.76215,1689.7547 C 303.59348,1697.4916 320.81465,1699.9615 314.95733,1705.6373 C 314.95733,1705.6373 314.95733,1705.6373 314.95733,1705.6373"
           id="path14457" />
        <path
           style="opacity:1;fill:#e03a00;fill-opacity:1;stroke:#a9a9a9;stroke-width:2.875;stroke-linejoin:round;stroke-miterlimit:4;stroke-dasharray:none;stroke-opacity:1"
           d="M 376.48795,1706.2495 C 370.74394,1711.8155 369.76775,1695.8505 362.84347,1700.1322 C 362.8434,1700.1323 362.84334,1700.1323 362.84328,1700.1323 C 355.78265,1704.4987 365.01361,1715.3492 356.65869,1716.3613 C 356.65852,1716.3613 356.65834,1716.3614 356.65816,1716.3614 C 348.46592,1717.3533 359.61727,1703.0248 351.52771,1701.9331 C 351.52754,1701.9331 351.52736,1701.9331 351.52718,1701.933 C 343.27832,1700.8206 344.18662,1715.8677 336.37483,1712.8366 C 336.37466,1712.8365 336.37449,1712.8365 336.37432,1712.8364 C 328.7148,1709.8638 345.07048,1701.8838 339.49747,1695.8381 C 339.49742,1695.8381 339.49738,1695.838 339.49733,1695.838 C 333.81422,1689.6732 327.59165,1706.8035 323.28106,1699.5973 C 323.28102,1699.5973 323.28098,1699.5972 323.28094,1699.5971 C 319.05414,1692.5307 333.95045,1694.7026 332.78293,1686.7863 C 332.78292,1686.7862 332.78291,1686.7862 332.7829,1686.7861 C 331.5921,1678.7137 316.68153,1686.3954 317.3954,1678.2706 C 317.3954,1678.2705 317.39541,1678.2705 317.39541,1678.2704 C 318.0957,1670.3032 332.75425,1683.535 336.36675,1676.2348 C 336.36678,1676.2347 336.36681,1676.2347 336.36684,1676.2346 C 340.0503,1668.7905 323.04312,1667.2817 328.17179,1661.102 C 328.17184,1661.102 328.17188,1661.1019 328.17193,1661.1019 C 333.20129,1655.0422 337.12191,1669.8751 344.21172,1665.6324 C 344.21179,1665.6324 344.21185,1665.6323 344.21191,1665.6323 C 351.44134,1661.3058 339.02523,1651.3798 347.0059,1649.4858 C 347.00597,1649.4858 347.00604,1649.4858 347.00611,1649.4858 C 354.83201,1647.6288 347.35792,1664.4366 355.34139,1665.3627 C 355.34146,1665.3627 355.34153,1665.3627 355.3416,1665.3627 C 363.48248,1666.3068 360.75406,1649.12 368.10226,1652.5765 C 368.10232,1652.5765 368.10238,1652.5766 368.10244,1652.5766 C 375.30802,1655.9663 361.17899,1664.9943 366.50444,1671.0292 C 366.50449,1671.0293 366.50454,1671.0293 366.50459,1671.0294 C 371.93517,1677.183 377.21081,1659.8613 381.37858,1667.0042 C 381.37861,1667.0043 381.37865,1667.0043 381.37868,1667.0044 C 385.46543,1674.0089 370.81043,1673.2028 372.0593,1681.3786 C 372.05932,1681.3788 372.05935,1681.379 372.05938,1681.3792 C 373.33352,1689.7155 389.07176,1681.8087 387.4434,1689.9766 C 387.44339,1689.9767 387.44338,1689.9768 387.44336,1689.9768 C 385.84627,1697.9864 371.40074,1682.7794 368.29288,1690.3666 C 368.29286,1690.3667 368.29283,1690.3667 368.2928,1690.3668 C 365.12395,1698.1039 382.34529,1700.5738 376.48795,1706.2495 C 376.48795,1706.2495 376.48795,1706.2495 376.48795,1706.2495"
           id="path14459" />
        <path
           style="opacity:1;fill:#da1d00;fill-opacity:1;stroke:#cbcbcb;stroke-width:2.875;stroke-linejoin:round;stroke-miterlimit:4;stroke-dasharray:none;stroke-opacity:1"
           d="M 438.01856,1706.8618 C 432.27456,1712.4278 431.29837,1696.4628 424.37408,1700.7445 C 424.37405,1700.7445 424.37402,1700.7445 424.37399,1700.7445 C 417.31319,1705.1109 426.54426,1715.9615 418.18931,1716.9736 C 418.18909,1716.9736 418.18888,1716.9736 418.18866,1716.9736 C 409.99663,1717.9654 421.14785,1703.637 413.05833,1702.5454 C 413.05811,1702.5453 413.0579,1702.5453 413.05768,1702.5453 C 404.80895,1701.4329 405.7172,1716.48 397.90544,1713.4489 C 397.90524,1713.4488 397.90504,1713.4487 397.90484,1713.4486 C 390.24555,1710.4759 406.60107,1702.496 401.02809,1696.4504 C 401.02806,1696.4503 401.02804,1696.4503 401.02801,1696.4503 C 395.34488,1690.2853 389.12228,1707.4157 384.81167,1700.2096 C 384.81165,1700.2095 384.81163,1700.2095 384.81161,1700.2095 C 380.58462,1693.1429 395.48106,1695.3149 394.31355,1687.3986 C 394.31354,1687.3985 394.31354,1687.3985 394.31353,1687.3985 C 393.12285,1679.3259 378.21214,1687.0077 378.92601,1678.8829 C 378.92601,1678.8828 378.92601,1678.8828 378.92602,1678.8828 C 379.62619,1670.9154 394.28484,1684.1472 397.89736,1676.8471 C 397.89737,1676.847 397.89739,1676.847 397.89741,1676.847 C 401.58106,1669.4027 384.57371,1667.8939 389.70241,1661.7143 C 389.70243,1661.7142 389.70245,1661.7142 389.70247,1661.7142 C 394.73187,1655.6543 398.65249,1670.4873 405.74234,1666.2447 C 405.74237,1666.2446 405.7424,1666.2446 405.74243,1666.2446 C 412.97206,1661.9182 400.55581,1651.992 408.53652,1650.0981 C 408.53655,1650.098 408.53659,1650.098 408.53662,1650.098 C 416.36268,1648.2409 408.8885,1665.0489 416.872,1665.975 C 416.87203,1665.975 416.87207,1665.975 416.8721,1665.975 C 425.01311,1666.9192 422.28464,1649.7323 429.63287,1653.1888 C 429.6329,1653.1888 429.63293,1653.1888 429.63296,1653.1888 C 436.83875,1656.5784 422.70958,1665.6065 428.03506,1671.6415 C 428.03508,1671.6415 428.0351,1671.6415 428.03513,1671.6415 C 433.46573,1677.7954 438.74141,1660.4735 442.90919,1667.6165 C 442.90921,1667.6165 442.90922,1667.6165 442.90924,1667.6165 C 446.99617,1674.6212 432.34103,1673.815 433.58991,1681.9909 C 433.58994,1681.9911 433.58997,1681.9913 433.59001,1681.9915 C 434.86427,1690.3276 450.60237,1682.421 448.97402,1690.5889 C 448.97401,1690.5889 448.974,1690.5889 448.974,1690.589 C 447.37701,1698.5988 432.93136,1683.3916 429.8235,1690.9789 C 429.82348,1690.9789 429.82347,1690.9789 429.82346,1690.979 C 426.65441,1698.7161 443.87593,1701.186 438.01856,1706.8618 C 438.01856,1706.8618 438.01856,1706.8618 438.01856,1706.8618"
           id="path14461" />
      </g>
    </g>
  </g>
</svg>
