<?xml version="1.0" encoding="UTF-8" standalone="no"?>
<!-- Created with Inkscape (http://www.inkscape.org/) -->
<svg
   xmlns:dc="http://purl.org/dc/elements/1.1/"
   xmlns:cc="http://web.resource.org/cc/"
   xmlns:rdf="http://www.w3.org/1999/02/22-rdf-syntax-ns#"
   xmlns:svg="http://www.w3.org/2000/svg"
   xmlns="http://www.w3.org/2000/svg"
   xmlns:sodipodi="http://sodipodi.sourceforge.net/DTD/sodipodi-0.dtd"
   xmlns:inkscape="http://www.inkscape.org/namespaces/inkscape"
   width="744.09448819"
   height="1052.3622047"
   id="svg15699"
   sodipodi:version="0.32"
   inkscape:version="0.45+devel"
   sodipodi:docbase="C:\Documents and Settings\ryan\Desktop\tut"
   sodipodi:docname="interpolate-f02.svg"
   inkscape:output_extension="org.inkscape.output.svg.inkscape">
  <defs
     id="defs15701" />
  <sodipodi:namedview
     id="base"
     pagecolor="#ffffff"
     bordercolor="#666666"
     borderopacity="1.0"
     gridtolerance="10000"
     guidetolerance="10"
     objecttolerance="10"
     inkscape:pageopacity="0.0"
     inkscape:pageshadow="2"
     inkscape:zoom="1.979899"
     inkscape:cx="309.26097"
     inkscape:cy="991.96646"
     inkscape:document-units="px"
     inkscape:current-layer="layer1"
     inkscape:window-width="1426"
     inkscape:window-height="855"
     inkscape:window-x="37"
     inkscape:window-y="105"
     showguides="true"
     inkscape:guide-bbox="true" />
  <metadata
     id="metadata15704">
    <rdf:RDF>
      <cc:Work
         rdf:about="">
        <dc:format>image/svg+xml</dc:format>
        <dc:type
           rdf:resource="http://purl.org/dc/dcmitype/StillImage" />
      </cc:Work>
    </rdf:RDF>
  </metadata>
  <g
     inkscape:label="Layer 1"
     inkscape:groupmode="layer"
     id="layer1">
    <g
       id="g3003"
       transform="translate(2.8125e-6,2.0373646e-2)">
      <path
         inkscape:export-ydpi="88.379997"
         inkscape:export-filename="C:\Documents and Settings\ryan\Desktop\interpolate2.png"
         inkscape:export-xdpi="88.379997"
         d="M 20.289581,2.0037052 C 30.408671,2.0037052 38.555091,10.150125 38.555091,20.269215 C 38.555091,30.388345 30.408671,38.534745 20.289581,38.534745 C 10.170491,38.534745 2.0240788,30.388345 2.0240788,20.269215 C 2.0240788,10.150125 10.170491,2.0037052 20.289581,2.0037052 z"
         id="path4419"
         style="fill:#00ccff;fill-opacity:1;stroke:#2e75ac;stroke-width:4.04815769;stroke-linejoin:round;stroke-miterlimit:4;stroke-opacity:1" />
      <path
         inkscape:export-ydpi="88.379997"
         inkscape:export-filename="C:\Documents and Settings\ryan\Desktop\interpolate2.png"
         inkscape:export-xdpi="88.379997"
         d="M 245.43989,2.0037052 C 255.55898,2.0037052 263.70539,10.150125 263.70539,20.269215 C 263.70539,30.388345 255.55898,38.534745 245.43989,38.534745 C 235.3208,38.534745 227.17438,30.388345 227.17438,20.269215 C 227.17438,10.150125 235.3208,2.0037052 245.43989,2.0037052 z"
         id="path4421"
         style="fill:#00ccff;fill-opacity:1;stroke:#2e75ac;stroke-width:4.04815769;stroke-linejoin:round;stroke-miterlimit:4;stroke-opacity:1" />
      <g
         id="g4423"
         inkscape:export-ydpi="88.379997"
         inkscape:export-filename="C:\Documents and Settings\ryan\Desktop\interpolate2.png"
         inkscape:export-xdpi="88.379997"
         transform="matrix(0.5218716,0,0,0.5218716,-12.141006,-26.068155)">
        <path
           id="path4425"
           d="M 123.77551,53.790756 C 143.16551,53.790756 158.77551,69.400756 158.77551,88.790756 C 158.77551,108.18076 143.16551,123.79076 123.77551,123.79076 C 104.38551,123.79076 88.775512,108.18076 88.775512,88.790756 C 88.775512,69.400756 104.38551,53.790756 123.77551,53.790756 C 123.77551,53.790756 123.77551,53.790756 123.77551,53.790756"
           style="fill:#00ccff;fill-opacity:1;stroke:#2e75ac;stroke-width:7.75699997;stroke-linejoin:round;stroke-miterlimit:4;stroke-opacity:1" />
        <path
           id="path4427"
           d="M 185.40817,53.790756 C 204.79817,53.790756 220.40817,69.400756 220.40817,88.790756 C 220.40817,108.18076 204.79817,123.79076 185.40817,123.79076 C 166.01817,123.79076 150.40817,108.18076 150.40817,88.790756 C 150.40817,69.400756 166.01817,53.790756 185.40817,53.790756 C 185.40817,53.790756 185.40817,53.790756 185.40817,53.790756"
           style="fill:#00ccff;fill-opacity:1;stroke:#2e75ac;stroke-width:7.75699997;stroke-linejoin:round;stroke-miterlimit:4;stroke-opacity:1" />
        <path
           id="path4429"
           d="M 247.04082,53.790756 C 266.43082,53.790756 282.04082,69.400756 282.04082,88.790756 C 282.04082,108.18076 266.43082,123.79076 247.04082,123.79076 C 227.65082,123.79076 212.04082,108.18076 212.04082,88.790756 C 212.04082,69.400756 227.65082,53.790756 247.04082,53.790756 C 247.04082,53.790756 247.04082,53.790756 247.04082,53.790756"
           style="fill:#00ccff;fill-opacity:1;stroke:#2e75ac;stroke-width:7.75699997;stroke-linejoin:round;stroke-miterlimit:4;stroke-opacity:1" />
        <path
           id="path4431"
           d="M 308.67348,53.790756 C 328.06348,53.790756 343.67348,69.400756 343.67348,88.790756 C 343.67348,108.18076 328.06348,123.79076 308.67348,123.79076 C 289.28348,123.79076 273.67348,108.18076 273.67348,88.790756 C 273.67348,69.400756 289.28348,53.790756 308.67348,53.790756 C 308.67348,53.790756 308.67348,53.790756 308.67348,53.790756"
           style="fill:#00ccff;fill-opacity:1;stroke:#2e75ac;stroke-width:7.75699997;stroke-linejoin:round;stroke-miterlimit:4;stroke-opacity:1" />
        <path
           id="path4433"
           d="M 370.30613,53.790756 C 389.69613,53.790756 405.30613,69.400756 405.30613,88.790756 C 405.30613,108.18076 389.69613,123.79076 370.30613,123.79076 C 350.91613,123.79076 335.30613,108.18076 335.30613,88.790756 C 335.30613,69.400756 350.91613,53.790756 370.30613,53.790756 C 370.30613,53.790756 370.30613,53.790756 370.30613,53.790756"
           style="fill:#00ccff;fill-opacity:1;stroke:#2e75ac;stroke-width:7.75699997;stroke-linejoin:round;stroke-miterlimit:4;stroke-opacity:1" />
        <path
           id="path4435"
           d="M 431.93879,53.790756 C 451.32879,53.790756 466.93879,69.400756 466.93879,88.790756 C 466.93879,108.18076 451.32879,123.79076 431.93879,123.79076 C 412.54879,123.79076 396.93879,108.18076 396.93879,88.790756 C 396.93879,69.400756 412.54879,53.790756 431.93879,53.790756 C 431.93879,53.790756 431.93879,53.790756 431.93879,53.790756"
           style="fill:#00ccff;fill-opacity:1;stroke:#2e75ac;stroke-width:7.75699997;stroke-linejoin:round;stroke-miterlimit:4;stroke-opacity:1" />
      </g>
      <flowRoot
         transform="translate(-291.30762,26.335616)"
         style="font-size:6px;font-style:normal;font-weight:normal;fill:#000000;fill-opacity:1;stroke:none;stroke-width:1px;stroke-linecap:butt;stroke-linejoin:miter;stroke-opacity:1;font-family:sans-serif"
         id="flowRoot2609"
         xml:space="preserve"><flowRegion
           id="flowRegion2611"><rect
             style="font-size:6px"
             y="15.933611"
             x="290.71429"
             height="133.57143"
             width="127.14286"
             id="rect2613" /></flowRegion><flowPara
           id="flowPara2615">Exponent: 0.0</flowPara><flowPara
           id="flowPara2617">Interpolation Steps: 6</flowPara><flowPara
           id="flowPara2619">Interpolation Method: 2</flowPara><flowPara
           id="flowPara2621">Duplicate Endpaths: unchecked</flowPara><flowPara
           id="flowPara2623">Interpolate Style: unchecked</flowPara></flowRoot>    </g>
  </g>
</svg>
