<?xml version="1.0" encoding="UTF-8" standalone="no"?>
<!-- Created with Inkscape (http://www.inkscape.org/) -->
<svg
   xmlns:dc="http://purl.org/dc/elements/1.1/"
   xmlns:cc="http://web.resource.org/cc/"
   xmlns:rdf="http://www.w3.org/1999/02/22-rdf-syntax-ns#"
   xmlns:svg="http://www.w3.org/2000/svg"
   xmlns="http://www.w3.org/2000/svg"
   xmlns:xlink="http://www.w3.org/1999/xlink"
   xmlns:sodipodi="http://sodipodi.sourceforge.net/DTD/sodipodi-0.dtd"
   xmlns:inkscape="http://www.inkscape.org/namespaces/inkscape"
   sodipodi:docname="elements-f06.svg"
   sodipodi:docbase="/home/aaron/notes/inkdoc/elements"
   inkscape:version="0.41+cvs"
   sodipodi:version="0.32"
   id="svg2120"
   height="1052.3622047"
   width="744.09448819">
  <defs
     id="defs3">
    <linearGradient
       id="linearGradient2553">
      <stop
         id="stop2554"
         offset="0.0000000"
         style="stop-color:#ff0000;stop-opacity:1.0000000;" />
      <stop
         id="stop2555"
         offset="0.16502975"
         style="stop-color:#e2ff00;stop-opacity:1.0000000;" />
      <stop
         id="stop2556"
         offset="0.27658993"
         style="stop-color:#24ff00;stop-opacity:1.0000000;" />
      <stop
         id="stop2557"
         offset="0.51112521"
         style="stop-color:#00e8ff;stop-opacity:1.0000000;" />
      <stop
         id="stop2558"
         offset="0.76520509"
         style="stop-color:#1500ff;stop-opacity:1.0000000;" />
      <stop
         id="stop2559"
         offset="1.0000000"
         style="stop-color:#ff00ed;stop-opacity:1.0000000;" />
      <stop
         id="stop2560"
         offset="1.0000000"
         style="stop-color:#ff0000;stop-opacity:1.0000000;" />
    </linearGradient>
    <linearGradient
       gradientUnits="userSpaceOnUse"
       gradientTransform="matrix(1.735401,0.000000,0.000000,0.576236,0.000000,-1179.712)"
       y2="2135.3384"
       x2="180.35105"
       y1="2135.3384"
       x1="4.2215613"
       id="linearGradient2620"
       xlink:href="#linearGradient2553"
       inkscape:collect="always" />
  </defs>
  <sodipodi:namedview
     inkscape:window-y="21"
     inkscape:window-x="4"
     inkscape:window-height="513"
     inkscape:window-width="753"
     inkscape:current-layer="layer1"
     inkscape:document-units="px"
     inkscape:cy="520.00000"
     inkscape:cx="375.00000"
     inkscape:zoom="0.35000000"
     inkscape:pageshadow="2"
     inkscape:pageopacity="0.0"
     borderopacity="1.0"
     bordercolor="#666666"
     pagecolor="#ffffff"
     id="base" />
  <metadata
     id="metadata4">
    <rdf:RDF
       id="RDF5">
      <cc:Work
         id="Work6"
         rdf:about="">
        <dc:format
           id="format7">image/svg+xml</dc:format>
        <dc:type
           rdf:resource="http://purl.org/dc/dcmitype/StillImage"
           id="type9" />
      </cc:Work>
    </rdf:RDF>
  </metadata>
  <g
     id="layer1"
     inkscape:groupmode="layer"
     inkscape:label="Layer 1">
    <rect
       y="0.24915899"
       x="7.5752616"
       height="100.99377"
       width="305.15701"
       id="rect2045"
       style="fill:url(#linearGradient2620);fill-opacity:1.0000000;fill-rule:evenodd;stroke:#000000;stroke-width:0.49831799" />
  </g>
</svg>
