<?xml version="1.0" encoding="UTF-8" standalone="no"?>
<!-- Created with Inkscape (http://www.inkscape.org/) -->

<svg
   xmlns:dc="http://purl.org/dc/elements/1.1/"
   xmlns:cc="http://creativecommons.org/ns#"
   xmlns:rdf="http://www.w3.org/1999/02/22-rdf-syntax-ns#"
   xmlns:svg="http://www.w3.org/2000/svg"
   xmlns="http://www.w3.org/2000/svg"
   xmlns:sodipodi="http://sodipodi.sourceforge.net/DTD/sodipodi-0.dtd"
   xmlns:inkscape="http://www.inkscape.org/namespaces/inkscape"
   sodipodi:docname="basic-f06.svg"
   inkscape:version="0.48+devel r10003 custom"
   sodipodi:version="0.32"
   id="svg2928"
   height="1052.3622047"
   width="744.09448819"
   version="1.1">
  <defs
     id="defs3" />
  <sodipodi:namedview
     inkscape:window-y="25"
     inkscape:window-x="491"
     inkscape:window-height="513"
     inkscape:window-width="751"
     inkscape:current-layer="layer1"
     inkscape:document-units="px"
     inkscape:cy="1062.6922"
     inkscape:cx="271.57576"
     inkscape:zoom="0.98994949"
     inkscape:pageshadow="2"
     inkscape:pageopacity="0.0"
     borderopacity="1.0"
     bordercolor="#666666"
     pagecolor="#ffffff"
     id="base"
     showgrid="false"
     inkscape:window-maximized="0" />
  <metadata
     id="metadata4">
    <rdf:RDF>
      <cc:Work
         rdf:about="">
        <dc:format>image/svg+xml</dc:format>
        <dc:type
           rdf:resource="http://purl.org/dc/dcmitype/StillImage" />
      </cc:Work>
    </rdf:RDF>
  </metadata>
  <g
     id="layer1"
     inkscape:groupmode="layer"
     inkscape:label="Layer 1">
    <path
       style="font-size:12px;fill:#0000ff;fill-opacity:0.75;fill-rule:evenodd;stroke:#000000;stroke-width:1pt"
       d="m 14.389485,22.484795 31.524887,0 0,33.276271 -31.524887,0 z"
       id="rect1370" />
    <path
       transform="translate(-67.83676,-1232.299)"
       style="font-size:12px;fill:#ff0000;fill-opacity:0.75;fill-rule:evenodd;stroke:#000000;stroke-width:1pt"
       d="m 134.85646,1251.686 c 0,9.8339 -9.80151,17.8058 -21.89228,17.8058 -12.09077,0 -21.892282,-7.9719 -21.892282,-17.8058 0,-9.8338 9.801512,-17.8057 21.892282,-17.8057 12.09077,0 21.89228,7.9719 21.89228,17.8057 z"
       id="path1371" />
    <path
       transform="translate(-85.47640,-1195.746)"
       style="font-size:12px;fill:#ffff00;fill-opacity:0.75;fill-rule:evenodd;stroke:#000000;stroke-width:1pt"
       d="m 184.47897,1254.8968 -15.23787,-3.72 -11.70303,10.4437 -1.17083,-15.6417 -13.54896,-7.9029 14.51426,-5.9471 3.32931,-15.328 10.14114,11.9662 15.60658,-1.5703 -8.24669,13.3426 z"
       id="polygon1372" />
    <g
       transform="translate(-8.869910,-1456.949)"
       id="g1376">
      <path
         style="font-size:12px;fill:#0000ff;fill-opacity:0.75;fill-rule:evenodd;stroke:#000000;stroke-width:1pt"
         d="m 186.25153,1479.4336 31.52488,0 0,33.2763 -31.52488,0 z"
         id="rect1373" />
      <path
         transform="translate(104.0253,224.6495)"
         style="font-size:12px;fill:#ff0000;fill-opacity:0.75;fill-rule:evenodd;stroke:#000000;stroke-width:1pt"
         d="m 134.85646,1251.686 c 0,9.8339 -9.80151,17.8058 -21.89228,17.8058 -12.09077,0 -21.892282,-7.9719 -21.892282,-17.8058 0,-9.8338 9.801512,-17.8057 21.892282,-17.8057 12.09077,0 21.89228,7.9719 21.89228,17.8057 z"
         id="path1374" />
      <path
         transform="translate(86.38563,261.2024)"
         style="font-size:12px;fill:#ffff00;fill-opacity:0.75;fill-rule:evenodd;stroke:#000000;stroke-width:1pt"
         d="m 184.47897,1254.8968 -15.23787,-3.72 -11.70303,10.4437 -1.17083,-15.6417 -13.54896,-7.9029 14.51426,-5.9471 3.32931,-15.328 10.14114,11.9662 15.60658,-1.5703 -8.24669,13.3426 z"
         id="polygon1375" />
    </g>
  </g>
</svg>
