<?xml version="1.0" encoding="UTF-8" standalone="no"?>
<!-- Created with Inkscape (http://www.inkscape.org/) -->

<svg
   xmlns:dc="http://purl.org/dc/elements/1.1/"
   xmlns:cc="http://creativecommons.org/ns#"
   xmlns:rdf="http://www.w3.org/1999/02/22-rdf-syntax-ns#"
   xmlns:svg="http://www.w3.org/2000/svg"
   xmlns="http://www.w3.org/2000/svg"
   xmlns:sodipodi="http://sodipodi.sourceforge.net/DTD/sodipodi-0.dtd"
   xmlns:inkscape="http://www.inkscape.org/namespaces/inkscape"
   sodipodi:docname="basic-f07.svg"
   inkscape:version="0.48+devel r10003 custom"
   sodipodi:version="0.32"
   id="svg2928"
   height="1052.3622047"
   width="744.09448819"
   version="1.1">
  <defs
     id="defs3" />
  <sodipodi:namedview
     inkscape:window-y="25"
     inkscape:window-x="491"
     inkscape:window-height="513"
     inkscape:window-width="751"
     inkscape:current-layer="layer1"
     inkscape:document-units="px"
     inkscape:cy="1062.6922"
     inkscape:cx="271.57576"
     inkscape:zoom="0.98994949"
     inkscape:pageshadow="2"
     inkscape:pageopacity="0.0"
     borderopacity="1.0"
     bordercolor="#666666"
     pagecolor="#ffffff"
     id="base"
     showgrid="false"
     inkscape:window-maximized="0" />
  <metadata
     id="metadata4">
    <rdf:RDF>
      <cc:Work
         rdf:about="">
        <dc:format>image/svg+xml</dc:format>
        <dc:type
           rdf:resource="http://purl.org/dc/dcmitype/StillImage" />
      </cc:Work>
    </rdf:RDF>
  </metadata>
  <g
     id="layer1"
     inkscape:groupmode="layer"
     inkscape:label="Layer 1">
    <path
       transform="translate(3.065620,-1432.258)"
       style="font-size:12px;fill:#ff0000;fill-opacity:0.75;fill-rule:evenodd;stroke:#000000;stroke-width:1pt"
       d="m 190.31691,1450.1674 c 0,9.0277 -29.6659,16.3462 -66.26064,16.3462 -36.594746,0 -66.260646,-7.3185 -66.260646,-16.3462 0,-9.0278 29.6659,-16.3463 66.260646,-16.3463 36.59474,0 66.26064,7.3185 66.26064,16.3463 z"
       id="path930" />
  </g>
</svg>
