<?xml version="1.0" encoding="UTF-8" standalone="no"?>
<!-- Created with Inkscape (http://www.inkscape.org/) -->

<svg
   xmlns:dc="http://purl.org/dc/elements/1.1/"
   xmlns:cc="http://creativecommons.org/ns#"
   xmlns:rdf="http://www.w3.org/1999/02/22-rdf-syntax-ns#"
   xmlns:svg="http://www.w3.org/2000/svg"
   xmlns="http://www.w3.org/2000/svg"
   xmlns:xlink="http://www.w3.org/1999/xlink"
   xmlns:sodipodi="http://sodipodi.sourceforge.net/DTD/sodipodi-0.dtd"
   xmlns:inkscape="http://www.inkscape.org/namespaces/inkscape"
   sodipodi:docname="_tutorial-header.eo.svg"
   inkscape:version="0.48+devel r10003 custom"
   sodipodi:version="0.32"
   id="svg2708"
   height="1052.3622047"
   width="256.00000pt"
   inkscape:output_extension="org.inkscape.output.svg.inkscape"
   version="1.1">
  <defs
     id="defs3">
    <linearGradient
       id="linearGradient841">
      <stop
         id="stop842"
         offset="0.00000000"
         style="stop-color:#0082ab;stop-opacity:1;" />
      <stop
         id="stop843"
         offset="1"
         style="stop-color:white;stop-opacity:0;" />
    </linearGradient>
    <linearGradient
       y2="0.91666669"
       x2="0.51618570"
       y1="0.16666391"
       x1="0.51618570"
       id="linearGradient1657"
       xlink:href="#linearGradient841" />
    <filter
       id="filter48"
       color-interpolation-filters="sRGB"
       height="1.2"
       width="1.2"
       y="-0.1"
       x="-0.1"
       inkscape:label="Drop shadow, custom">
      <feFlood
         id="feFlood50"
         flood-opacity="0.686275"
         flood-color="rgb(255,255,255)"
         result="flood" />
      <feComposite
         id="feComposite52"
         in2="SourceGraphic"
         in="flood"
         operator="in"
         result="composite1" />
      <feGaussianBlur
         id="feGaussianBlur54"
         in="composite1"
         stdDeviation="20"
         result="blur" />
      <feOffset
         id="feOffset56"
         dx="0"
         dy="0"
         result="offset" />
      <feComposite
         id="feComposite58"
         in2="offset"
         in="SourceGraphic"
         operator="over"
         result="composite2" />
    </filter>
  </defs>
  <sodipodi:namedview
     inkscape:window-y="25"
     inkscape:window-x="37"
     inkscape:window-height="785"
     inkscape:window-width="1235"
     inkscape:current-layer="layer1"
     inkscape:document-units="px"
     inkscape:cy="955.84727"
     inkscape:cx="126.9599"
     inkscape:zoom="2.2210678"
     inkscape:pageshadow="2"
     inkscape:pageopacity="0.0"
     borderopacity="1.0"
     bordercolor="#666666"
     pagecolor="#ffffff"
     id="base"
     showgrid="false"
     inkscape:window-maximized="0" />
  <metadata
     id="metadata4">
    <rdf:RDF>
      <cc:Work
         rdf:about="">
        <dc:format>image/svg+xml</dc:format>
        <dc:type
           rdf:resource="http://purl.org/dc/dcmitype/StillImage" />
      </cc:Work>
    </rdf:RDF>
  </metadata>
  <g
     id="layer1"
     inkscape:groupmode="layer"
     inkscape:label="Layer 1">
    <rect
       rx="0.0000000"
       ry="6.1828303"
       y="0.27752987"
       x="0.18214770"
       height="69.247704"
       width="319.89233"
       id="rect582"
       style="stroke-width:3.0611501;stroke:none;fill-rule:evenodd;fill-opacity:1.0000000;fill:url(#linearGradient1657);font-size:12.000000" />
    <path
       id="path93"
       d="M 150.96825,4.9606428 L 141.38875,4.9606428 L 141.38875,5.5735708 L 141.67566,5.5735708 C 142.96674,5.5735708 143.11020,5.6387828 143.11020,6.1864998 L 143.11020,6.5646939 L 143.11020,12.772216 L 143.11020,13.150409 C 143.11020,13.698134 142.96674,13.763338 141.67566,13.763338 L 141.38875,13.763338 L 141.38875,14.376267 L 151.17546,14.376267 L 151.49425,10.894312 L 150.79292,10.894312 C 150.58571,11.807180 150.21911,12.615728 149.83656,12.993914 C 149.34245,13.515559 148.43391,13.763338 147.09501,13.763338 L 146.04302,13.763338 C 145.56485,13.763338 145.16636,13.685090 145.02291,13.567719 C 144.91133,13.489472 144.89539,13.411232 144.89539,13.137365 L 144.89539,9.8119059 L 145.21418,9.8119059 C 146.18648,9.8119059 146.58495,9.8901539 146.90374,10.164012 C 147.31816,10.503082 147.47755,10.920392 147.50944,11.689817 L 148.25858,11.689817 L 148.25858,7.4123579 L 147.50944,7.4123579 C 147.42973,8.6903759 146.79216,9.1989769 145.27794,9.1989769 L 144.89539,9.1989769 L 144.89539,6.2256238 C 144.89539,5.6648628 145.03885,5.5735708 145.89956,5.5735708 L 146.72841,5.5735708 C 148.13106,5.5735708 148.81645,5.6909428 149.35839,6.0560928 C 149.88438,6.3951548 150.26692,7.1254559 150.50602,8.2991459 L 151.19140,8.2991459 L 150.96825,4.9606428 z M 129.81685,10.190100 L 131.61799,10.190100 C 133.05252,10.190100 133.80166,10.098809 134.43923,9.8510299 C 135.57093,9.4076319 136.20850,8.5730119 136.20850,7.5427659 C 136.20850,6.5516499 135.65062,5.7952698 134.59863,5.3649158 C 133.97699,5.1040938 132.98876,4.9606428 131.88895,4.9606428 L 126.31021,4.9606428 L 126.31021,5.5735708 L 126.59712,5.5735708 C 127.88820,5.5735708 128.03165,5.6387828 128.03165,6.1864998 L 128.03165,6.5646939 L 128.03165,12.772216 L 128.03165,13.150409 C 128.03165,13.698134 127.88820,13.763338 126.59712,13.763338 L 126.31021,13.763338 L 126.31021,14.376267 L 131.66581,14.376267 L 131.66581,13.763338 L 131.25138,13.763338 C 129.96030,13.763338 129.81685,13.698134 129.81685,13.150409 L 129.81685,12.772216 L 129.81685,10.190100 z M 129.81685,9.5771709 L 129.81685,6.2386678 C 129.81685,5.6387828 129.91248,5.5735708 130.78915,5.5735708 L 131.80926,5.5735708 C 133.46694,5.5735708 134.24796,6.2125878 134.24796,7.5949329 C 134.24796,8.9381549 133.43506,9.5771709 131.74550,9.5771709 L 129.81685,9.5771709 z M 115.94969,4.7780748 L 115.28024,4.7780748 L 111.61420,12.380985 C 111.29542,13.059118 111.23167,13.150409 110.99258,13.359064 C 110.73755,13.606843 110.29125,13.763338 109.86089,13.763338 L 109.79713,13.763338 L 109.79713,14.376267 L 114.02103,14.376267 L 114.02103,13.763338 L 113.70225,13.763338 C 112.84153,13.763338 112.41117,13.515559 112.41117,13.020002 C 112.41117,12.863507 112.45899,12.680932 112.55462,12.472277 L 113.08062,11.324666 L 117.30453,11.324666 L 118.16525,13.072162 C 118.26088,13.267780 118.29276,13.359064 118.29276,13.424268 C 118.29276,13.632923 117.89428,13.763338 117.30453,13.763338 L 116.63508,13.763338 L 116.63508,14.376267 L 121.57624,14.376267 L 121.57624,13.763338 L 121.35310,13.763338 C 120.55613,13.763338 120.38080,13.659010 120.01420,12.928710 L 115.94969,4.7780748 z M 115.16866,6.9168009 L 116.96980,10.620453 L 113.39940,10.620453 L 115.16866,6.9168009 z M 104.17057,4.8693588 L 103.56488,4.8693588 L 102.92731,5.6387828 C 101.79562,4.9606428 101.17399,4.7650308 100.10606,4.7650308 C 98.559938,4.7650308 97.284798,5.2736318 96.200928,6.3299508 C 95.180811,7.3210739 94.702641,8.4165169 94.702641,9.7597459 C 94.702641,12.563560 96.950078,14.571878 100.09012,14.571878 C 102.64040,14.571878 104.26621,13.346020 104.63281,11.155135 L 103.88367,11.050800 C 103.72427,11.741976 103.53300,12.211454 103.24610,12.602684 C 102.59258,13.502516 101.57247,13.958949 100.28139,13.958949 C 97.922368,13.958949 96.806618,12.615728 96.806618,9.8119059 C 96.806618,8.3382689 97.045708,7.3471539 97.587648,6.5646939 C 98.081758,5.8343938 99.069985,5.3779598 100.09012,5.3779598 C 101.20587,5.3779598 102.19410,5.8604738 102.79980,6.6951019 C 103.10264,7.1254559 103.34173,7.6340569 103.70834,8.6382159 L 104.40966,8.6382159 L 104.17057,4.8693588 z M 88.215354,4.8824028 L 87.625607,4.8824028 L 86.988037,5.6648628 C 86.238897,5.0780138 85.218777,4.7650308 84.087100,4.7650308 C 81.999060,4.7650308 80.596403,5.8604738 80.596403,7.4906049 C 80.596403,8.9120749 81.457120,9.6162949 83.800200,10.111852 L 85.314417,10.424835 C 86.493927,10.672614 86.605497,10.698694 86.940227,10.907349 C 87.418407,11.207295 87.673427,11.637649 87.673427,12.146250 C 87.673427,12.667888 87.434337,13.098242 86.956167,13.450355 C 86.430167,13.828542 85.904167,13.971993 85.027507,13.971993 C 83.848010,13.971993 83.003230,13.672047 82.254090,12.993914 C 81.584630,12.380985 81.249910,11.768056 81.010823,10.763905 L 80.325433,10.763905 L 80.389193,14.480595 L 81.010823,14.480595 L 81.728080,13.593806 C 82.796020,14.311056 83.688610,14.571878 85.075327,14.571878 C 87.418407,14.571878 88.916694,13.450355 88.916694,11.702853 C 88.916694,10.894312 88.581964,10.203136 87.960337,9.7075779 C 87.529977,9.3685089 86.908347,9.1468169 85.633197,8.8859939 L 83.927700,8.5338879 C 82.509110,8.2339419 81.839660,7.7253399 81.839660,6.9298439 C 81.839660,6.0169688 82.748200,5.3909968 84.103040,5.3909968 C 85.218777,5.3909968 86.127317,5.7822338 86.764897,6.5255699 C 87.227137,7.0602519 87.514037,7.6079769 87.721247,8.2730659 L 88.406634,8.2730659 L 88.215354,4.8824028 z M 66.665476,10.111852 L 66.665476,6.5646939 L 66.665476,6.1864998 C 66.665476,5.6387828 66.808935,5.5735708 68.100014,5.5735708 L 68.402861,5.5735708 L 68.402861,4.9606428 L 63.158832,4.9606428 L 63.158832,5.5735708 L 63.445744,5.5735708 C 64.736818,5.5735708 64.880276,5.6387828 64.880276,6.1864998 L 64.880276,6.5646939 L 64.880276,12.772216 L 64.880276,13.150409 C 64.880276,13.698134 64.736818,13.763338 63.445744,13.763338 L 63.158832,13.763338 L 63.158832,14.376267 L 68.402861,14.376267 L 68.402861,13.763338 L 68.100014,13.763338 C 66.808935,13.763338 66.665476,13.698134 66.665476,13.150409 L 66.665476,12.772216 L 66.665476,11.116011 L 68.514433,9.5902069 L 71.287871,12.915667 C 71.542896,13.228657 71.606653,13.332984 71.606653,13.463392 C 71.606653,13.672047 71.303811,13.763338 70.522783,13.763338 L 70.028662,13.763338 L 70.028662,14.376267 L 75.479896,14.376267 L 75.479896,13.763338 L 75.177056,13.763338 C 74.300396,13.763338 74.077246,13.672047 73.614998,13.111285 L 69.757696,8.5599679 L 72.132644,6.6168539 C 72.897731,5.9517648 73.870028,5.5735708 74.826396,5.5735708 L 74.826396,4.9606428 L 69.917090,4.9606428 L 69.917090,5.5735708 L 70.315574,5.5735708 C 71.048775,5.5735708 71.351627,5.6909428 71.351627,5.9648018 C 71.351627,6.1473768 71.032840,6.5255699 70.570599,6.9037569 L 66.665476,10.111852 z M 48.845329,4.9606428 L 45.561840,4.9606428 L 45.561840,5.5735708 L 45.960319,5.5735708 C 46.773222,5.5735708 47.139831,5.6778988 47.426732,6.0039248 L 47.426732,11.546365 C 47.426732,13.332984 47.107950,13.711171 45.577780,13.763338 L 45.577780,14.376267 L 50.120510,14.376267 L 50.120510,13.763338 C 48.606244,13.711171 48.287451,13.332984 48.287451,11.546365 L 48.287451,6.7081449 L 55.396408,14.558842 L 56.065863,14.558842 L 56.065863,7.7905439 C 56.065863,6.0039248 56.384651,5.6257388 57.914820,5.5735708 L 57.914820,4.9606428 L 53.372123,4.9606428 L 53.372123,5.5735708 C 54.886352,5.6257388 55.205134,6.0039248 55.205134,7.7905439 L 55.205134,11.885427 L 48.845329,4.9606428 z M 38.484798,6.5646939 L 38.484798,6.1864998 C 38.484798,5.6387828 38.628257,5.5735708 39.903394,5.5735708 L 40.222181,5.5735708 L 40.222181,4.9606428 L 34.946282,4.9606428 L 34.946282,5.5735708 L 35.265070,5.5735708 C 36.556146,5.5735708 36.699604,5.6387828 36.699604,6.1864998 L 36.699604,6.5646939 L 36.699604,12.772216 L 36.699604,13.150409 C 36.699604,13.698134 36.556146,13.763338 35.265070,13.763338 L 34.946282,13.763338 L 34.946282,14.376267 L 40.222181,14.376267 L 40.222181,13.763338 L 39.903394,13.763338 C 38.628257,13.763338 38.484798,13.698134 38.484798,13.150409 L 38.484798,12.772216 L 38.484798,6.5646939 z "
       style="stroke-width:1.0000000pt;fill-opacity:1.0000000;fill:#ffffff" />
    <use
       style="opacity:0.0786517"
       height="1052.3622"
       width="320"
       transform="matrix(2.39436,0,0,2.331219,-82.96365,-14.49494)"
       id="use1325"
       xlink:href="#path93"
       y="0"
       x="0" />
    <g
       id="g839"
       transform="matrix(0.058837,0,0,0.058837,-4.7689003,-3.296641)"
       style="filter:url(#filter48)">
      <path
         style="font-size:12px;fill:#ffffff;fill-rule:evenodd;stroke:#000000;stroke-width:0.93619299pt"
         d="M 397.64309,320.25301 280.39197,282.517 l -29.6497,-157.68253 94.33998,-95.687687 48.51771,17.520281 90.29683,88.949126 -86.2537,184.63682 z"
         id="path805" />
      <path
         style="font-size:12px;fill:#000000;fill-opacity:1;fill-rule:evenodd;stroke-width:1pt"
         d="m 476.95792,339.17168 c 18.82405,3.76439 22.5905,16.94193 18.82405,20.70634 -3.76341,3.76538 -13.17547,7.52979 -20.70534,1.88212 -7.53185,-5.64653 -7.53185,-18.82407 1.88129,-22.58846 z"
         id="path1791" />
      <path
         style="font-size:12px;fill:#000000;fill-opacity:1;fill-rule:evenodd;stroke-width:1pt"
         d="m 286.46194,340.42914 c -1.83424,0.48921 -17.15789,-12.71577 -29.29285,-6.59534 -12.13187,6.11956 -20.27633,19.82286 -8.94233,25.44602 11.33508,5.62316 19.43757,-0.86115 29.37437,-7.83863 9.9379,-6.97642 9.57933,-8.32059 8.86081,-11.01205 z"
         id="path1792" />
      <path
         style="font-size:12px;fill:#000000;fill-opacity:1;fill-rule:evenodd;stroke-width:1pt"
         d="m 510.35756,306.92856 c 10.23738,-2.55977 33.88577,0 30.11932,15.05778 -3.76334,15.06172 -35.76391,9.41193 -56.47317,1.88522 -1.8823,-15.06073 21.52866,-15.73733 26.35385,-16.943 z"
         id="path1793" />
      <path
         style="font-size:12px;fill:#000000;fill-opacity:1;fill-rule:evenodd;stroke-width:1pt"
         d="m 359.2403,21.362537 c -11.31337,0 -22.6056,4.320558 -31.27474,12.989693 L 173.87387,188.41466 c -8.4969,8.49674 -12.76227,19.54347 -12.93118,30.63111 l -0.0585,0 c 0,0.0395 0.0566,0.0774 0.0585,0.11702 -0.002,0.18609 -0.0585,0.36977 -0.0585,0.55586 l 0.2633,0 c 2.94912,11.22052 79.14951,25.52333 87.65118,34.02481 12.83905,12.83917 -49.23346,22.26805 -36.39456,35.10728 12.83906,12.83905 77.59023,24.84256 90.4305,37.6818 12.83908,12.83907 -26.2385,26.51035 -13.39928,39.34942 12.83907,12.83922 55.96669,-3.20939 48.15548,30.28002 17.33829,17.33828 53.51222,9.05882 77.73337,-8.27946 12.83906,-12.83907 -24.62937,-11.70675 -11.7902,-24.54584 12.83907,-12.83923 45.24731,-12.90848 72.55505,-43.62079 -10.99163,-17.09473 -46.98101,-24.37453 -34.14183,-37.21372 12.83906,-12.83906 37.79989,-6.31794 91.65925,-30.77738 26.29193,-11.94081 24.11992,-21.0102 24.01923,-32.00614 -0.002,-0.23138 0,-0.43973 0,-0.67288 l -0.0585,0 C 557.3983,207.95812 553.10345,196.9114 544.60673,188.41466 L 390.54428,34.35223 C 381.87515,25.683095 370.55366,21.362537 359.2403,21.362537 z m -1.31652,20.040402 c 5.02949,0.131024 9.09163,3.965079 17.05628,9.127893 l 72.78909,53.977438 c 0.79681,0.51671 1.55569,1.05573 2.25272,1.60908 0.69703,0.55327 1.33373,1.1401 1.9309,1.72612 0.5972,0.58495 1.14004,1.17206 1.63834,1.78461 0.49726,0.61244 0.94845,1.23853 1.34577,1.8724 0.39844,0.6349 0.75476,1.27981 1.05322,1.93089 0.29867,0.65226 0.53281,1.32502 0.7314,1.98941 0.19976,0.66341 0.36832,1.31895 0.46811,1.98941 0.0999,0.67165 0.14627,1.34516 0.14627,2.01867 l -43.12343,-20.830311 -4.30065,32.562001 -23.72668,-11.11731 -36.62858,24.45807 -14.01366,-48.33101 -18.05098,42.275 -50.40821,5.03205 0.55587,-22.4394 c 0,-5.38972 29.05729,-43.122051 46.75119,-52.105048 l 32.38646,-23.258575 c 4.77873,-3.097693 8.12887,-4.35 11.14657,-4.271388 z m -66.9964,220.210391 c 22.94411,5.95032 48.47561,13.75705 68.95655,13.89664 l 0.87768,9.21566 c -17.53811,-1.80778 -54.64815,-10.27551 -63.39789,-14.74506 l -6.43634,-8.36724 z"
         id="path831" />
    </g>
    <path
       style="opacity:1;color:#000000;fill:#ffffff;fill-opacity:0.110769;fill-rule:nonzero;stroke:none;stroke-width:1pt;stroke-linecap:butt;stroke-linejoin:miter;marker:none;marker-start:none;marker-mid:none;marker-end:none;stroke-miterlimit:4;stroke-dasharray:none;stroke-dashoffset:0;stroke-opacity:1;visibility:visible;font-family:sans-serif"
       d="M 100.21376,10.826945 L 105.90953,10.826945 L 102.41069,22.299848 L 108.83877,22.299848 L 108.26917,24.171317 L 101.84109,24.171317 L 100.29509,28.890665 C 98.993226,32.904826 97.609943,37.75979 96.145322,43.455559 C 94.680701,49.097081 93.948391,52.378927 93.948391,53.301101 C 93.948391,54.548745 94.517987,55.172565 95.657141,55.172565 C 97.664194,55.172565 100.07813,52.406049 102.89887,46.873017 C 103.17012,46.276319 103.57697,45.544004 104.1194,44.676078 L 105.74677,45.489761 C 103.63122,49.883639 102.05809,52.704398 101.0274,53.952042 C 98.803348,56.610068 96.443702,57.939081 93.948391,57.939081 C 92.266805,57.939081 90.910647,57.423751 89.879995,56.393087 C 88.849343,55.308181 88.333998,53.924921 88.333998,52.243315 C 88.333998,50.724444 88.578089,49.015713 89.066308,47.117123 C 89.608779,45.001553 91.344616,38.926066 94.273858,28.890665 L 95.657141,24.171317 L 89.147685,24.171317 L 89.798619,22.299848 L 96.308075,22.299848 L 100.21376,10.826945 z M 141.11506,21.648903 L 147.21767,21.648903 C 142.06433,38.085261 139.48768,48.500379 139.48768,52.894257 C 139.48768,54.521619 139.92165,55.335302 140.78959,55.335302 C 141.82024,55.335302 143.04077,54.358886 144.45114,52.406049 C 145.91576,50.398969 147.19055,47.930802 148.27545,45.001553 L 150.06554,45.733863 C 147.19055,53.870677 143.61033,57.939081 139.32497,57.939081 C 135.63625,57.939081 133.79192,55.877757 133.79192,51.755103 C 133.79192,50.670197 133.92754,48.907223 134.19876,46.466177 C 132.0832,49.720902 130.37445,52.080578 129.07259,53.545203 C 126.46877,56.474456 123.51241,57.939081 120.20345,57.939081 C 118.25061,57.939081 116.62323,57.261014 115.32136,55.904879 C 114.01946,54.548745 113.36852,52.867136 113.36852,50.860055 C 113.36852,49.883639 114.18221,46.601793 115.80958,41.014514 L 117.2742,35.969691 C 118.90154,30.382416 119.71523,26.937832 119.71523,25.635941 C 119.71523,24.605278 119.36263,24.089948 118.65745,24.089948 C 116.37914,24.089948 113.36852,27.670143 109.62559,34.830537 L 107.83551,33.935489 C 111.95815,25.473204 116.10792,21.242063 120.28482,21.242063 C 121.80369,21.242063 123.02422,21.81164 123.94637,22.950794 C 124.92281,24.089948 125.411,25.581698 125.411,27.426041 C 125.411,29.704348 124.86856,32.552233 123.78366,35.969691 L 121.58669,42.885982 C 119.7966,48.527505 118.90154,51.80935 118.90154,52.731524 C 118.90154,54.630113 119.87798,55.579408 121.83082,55.579408 C 123.56666,55.579408 125.46525,54.521619 127.52659,52.406049 C 129.64214,50.290479 131.54073,47.496841 133.22236,44.025136 C 135.77188,38.763328 138.40278,31.304589 141.11506,21.648903 z M 165.17318,10.826945 L 170.86895,10.826945 L 167.37011,22.299848 L 173.79819,22.299848 L 173.2286,24.171317 L 166.80052,24.171317 L 165.25452,28.890665 C 163.95265,32.904826 162.56937,37.75979 161.10475,43.455559 C 159.64013,49.097081 158.90782,52.378927 158.90782,53.301101 C 158.90782,54.548745 159.47741,55.172565 160.61657,55.172565 C 162.62362,55.172565 165.03755,52.406049 167.8583,46.873017 C 168.12955,46.276319 168.53639,45.544004 169.07883,44.676078 L 170.7062,45.489761 C 168.59064,49.883639 167.01752,52.704398 165.98683,53.952042 C 163.76277,56.610068 161.40313,57.939081 158.90782,57.939081 C 157.22623,57.939081 155.87007,57.423751 154.83942,56.393087 C 153.80877,55.308181 153.29342,53.924921 153.29342,52.243315 C 153.29342,50.724444 153.53751,49.015713 154.02573,47.117123 C 154.56821,45.001553 156.30404,38.926066 159.23328,28.890665 L 160.61657,24.171317 L 154.10711,24.171317 L 154.75804,22.299848 L 161.2675,22.299848 L 165.17318,10.826945 z M 193.32686,23.113531 C 189.42118,22.896547 185.94947,26.802217 182.91173,34.830537 C 180.79617,40.417816 179.7384,45.435514 179.7384,49.883639 C 179.7384,54.006289 181.55561,56.067616 185.19004,56.067616 C 188.11932,56.067616 190.66884,54.196148 192.83865,50.453216 C 194.24902,48.066418 195.46955,44.920184 196.50024,41.014514 C 197.53089,37.054601 198.12757,33.338791 198.29032,29.867082 C 198.50729,25.581698 196.85283,23.330512 193.32686,23.113531 z M 193.24549,21.242063 C 196.44598,21.242063 199.04976,22.516833 201.05685,25.066364 C 203.0639,27.561653 204.06747,30.816377 204.06747,34.830537 C 204.06747,39.76687 202.30447,44.757447 198.77854,49.80227 C 194.98136,55.226812 190.3705,57.939081 184.94594,57.939081 C 181.63698,57.939081 178.92471,56.799927 176.80915,54.521619 C 174.69356,52.189068 173.63578,49.232693 173.63578,45.652498 C 173.63578,39.577011 175.85984,33.826999 180.30795,28.402457 C 184.21363,23.628861 188.52616,21.242063 193.24549,21.242063 z M 209.11246,34.098226 L 207.40371,33.365912 C 208.81408,29.894207 210.52283,27.019201 212.52992,24.740893 C 214.53697,22.408339 216.3271,21.242063 217.90018,21.242063 C 221.42614,21.242063 223.18911,23.81872 223.18911,28.972034 C 223.18911,29.894207 223.02639,31.73855 222.70093,34.505066 C 226.44385,25.663063 230.43087,21.242063 234.66202,21.242063 C 235.85543,21.242063 236.85895,21.621781 237.67264,22.381217 C 238.54058,23.086406 238.97455,23.954336 238.97455,24.984996 C 238.97455,25.852922 238.6762,26.585236 238.07948,27.181935 C 237.4828,27.778637 236.75049,28.076986 235.88255,28.076986 C 234.03821,28.076986 233.11602,27.019201 233.11602,24.903631 C 233.11602,24.306928 232.92618,24.008579 232.54647,24.008579 C 232.004,24.008579 231.24456,24.496787 230.26816,25.473204 C 229.29172,26.449624 228.45095,27.588778 227.74572,28.890665 C 225.57592,32.796335 222.04995,42.126547 217.16787,56.881296 L 211.06526,56.881296 C 213.61482,49.232693 215.26928,43.645418 216.02872,40.119467 C 217.22212,34.586435 217.81884,30.572275 217.81884,28.076986 C 217.81884,25.418961 217.38487,24.089948 216.51694,24.089948 C 215.7575,24.089948 214.64547,25.066364 213.18085,27.019201 C 211.77048,28.972034 210.41432,31.33171 209.11246,34.098226 z M 255.08545,2.8528721 C 256.11611,2.8528721 256.98404,3.2325901 257.68923,3.992026 C 258.44866,4.6972148 258.82838,5.565141 258.82838,6.5958045 C 258.82838,7.6264681 258.44866,8.5215159 257.68923,9.2809518 C 256.98404,10.040388 256.11611,10.420106 255.08545,10.420106 C 254.0548,10.420106 253.15974,10.040388 252.4003,9.2809518 C 251.64087,8.5215159 251.26115,7.6264681 251.26115,6.5958045 C 251.26115,5.565141 251.64087,4.6972148 252.4003,3.992026 C 253.15974,3.2325901 254.0548,2.8528721 255.08545,2.8528721 z M 256.30598,45.57113 L 257.93332,46.384809 C 254.29889,54.087658 250.33896,57.939081 246.0536,57.939081 C 244.53473,57.939081 243.28707,57.396629 242.31067,56.311719 C 241.33423,55.172565 240.84605,53.735062 240.84605,51.999209 C 240.84605,50.805812 241.00876,49.69378 241.33423,48.663116 C 241.6597,47.632453 242.55476,45.327024 244.01938,41.746829 L 247.11138,34.342329 C 248.95571,29.948451 249.8779,26.992076 249.8779,25.473204 C 249.8779,24.388297 249.41681,23.845842 248.49462,23.845842 C 246.59603,23.845842 243.99226,26.829342 240.6833,32.796335 L 239.05592,31.819919 C 242.90735,24.768015 246.59603,21.242063 250.12199,21.242063 C 251.58662,21.242063 252.78002,21.784519 253.70221,22.869425 C 254.62436,23.954336 255.08545,25.364714 255.08545,27.10057 C 255.08545,29.161893 253.97342,32.986194 251.74937,38.573469 L 248.33191,47.117123 C 246.9215,50.643075 246.21631,52.948504 246.21631,54.033411 C 246.21631,55.009831 246.65028,55.49804 247.51822,55.49804 C 248.54887,55.49804 249.8779,54.575866 251.50524,52.731524 C 253.18686,50.832934 254.78711,48.446136 256.30598,45.57113 z M 283.88992,23.276265 C 282.26258,23.167775 280.36399,24.11707 278.19415,26.12415 C 276.07859,28.076986 274.09863,30.707887 272.25429,34.016858 C 268.56561,40.580549 266.72127,46.08646 266.72127,50.534585 C 266.72127,54.006289 268.07739,55.742142 270.78967,55.742142 C 275.18353,55.742142 279.3333,51.429632 283.23898,42.804614 C 285.89701,36.946107 287.38876,32.091146 287.71422,28.23972 C 287.82272,26.829342 287.52438,25.663063 286.8192,24.740893 C 286.11397,23.81872 285.13757,23.330512 283.88992,23.276265 z M 290.72484,22.299848 L 296.50199,22.299848 C 295.14587,25.934291 293.30149,31.250342 290.96897,38.247998 C 288.47366,45.78811 287.226,50.914303 287.226,53.626571 C 287.226,54.765725 287.65997,55.335302 288.52791,55.335302 C 290.4265,55.335302 293.08452,51.646613 296.50199,44.269238 L 298.29207,45.001553 C 296.01377,49.937882 294.06093,53.328222 292.43359,55.172565 C 290.80622,57.016911 288.96188,57.939081 286.90054,57.939081 C 283.53733,57.939081 281.85574,56.420209 281.85574,53.382469 C 281.85574,52.568786 282.09983,50.914303 282.58805,48.419014 C 278.73662,54.819972 274.61397,58.020449 270.22007,58.020449 C 267.45358,58.020449 265.2024,57.098276 263.46653,55.253933 C 261.73069,53.409591 260.86275,50.995671 260.86275,48.012171 C 260.86275,41.828197 263.30381,35.834079 268.18589,30.029819 C 273.06798,24.171317 278.08569,21.242063 283.23898,21.242063 C 285.95126,21.242063 288.01256,22.733813 289.42297,25.71731 L 290.72484,22.299848 z M 307.43281,4.4802342 L 307.92103,2.6087661 C 311.98943,2.4460288 316.60029,2.1748049 321.75359,1.795087 C 321.31966,3.2597117 320.99415,4.3174969 320.77719,4.9684425 C 320.18051,6.6500478 319.33969,9.1995831 318.25479,12.617045 L 311.66396,34.098226 C 308.51771,44.350607 306.94463,50.643075 306.94463,52.975626 C 306.94463,54.657235 307.43281,55.49804 308.40925,55.49804 C 309.76537,55.49804 311.44699,54.033411 313.45405,51.104162 C 314.48474,49.58529 315.65102,47.57821 316.95288,45.082921 L 318.82435,45.977969 C 317.19698,48.961466 315.97648,51.077036 315.1628,52.32468 C 312.66749,56.067616 309.81962,57.939081 306.61912,57.939081 C 304.99179,57.939081 303.66276,57.342382 302.6321,56.148981 C 301.60145,54.955584 301.08611,53.436712 301.08611,51.59237 C 301.08611,49.314062 302.0083,45.164286 303.85263,39.143046 L 311.01302,15.7904 C 312.58615,10.637086 313.37271,7.7349584 313.37271,7.0840128 C 313.37271,6.1075963 312.99299,5.4566507 312.23355,5.131176 C 311.47412,4.7514581 309.87387,4.5344775 307.43281,4.4802342 z "
       id="use2086"
       sodipodi:nodetypes="cccccccccccccccccccccccccccccccccccccccccccccccccccccccccccccccccccccccccccccccccccccccccccccccccccccccccccccccccccccccccccccccccccccccccccccccccccccccccccccccccccccccccccccccccccccccccccccccccc" />
    <text
       xml:space="preserve"
       style="font-size:6.96932268px;font-style:normal;font-variant:normal;font-weight:normal;font-stretch:normal;text-align:start;line-height:125%;writing-mode:lr-tb;text-anchor:start;opacity:0.5;fill:#000000;fill-opacity:1;stroke:none;font-family:sans-serif"
       x="3.6203015"
       y="-326.81229"
       id="text7519"
       sodipodi:linespacing="125%"
       transform="matrix(0,1,-1,0,0,0)"><tspan
         sodipodi:role="line"
         id="tspan7521"
         x="3.6203015"
         y="-326.81229"
         style="letter-spacing:0.29056421">Uzu <tspan
   style="font-weight:bold"
   id="tspan7523">Strkl+malsupren sagoklavo</tspan> por rulumi</tspan></text>
    <path
       transform="matrix(0.614962,4.549602e-2,6.191898e-2,-0.451855,112.4558,254.6044)"
       style="opacity:0.5;color:#000000;fill:#000000;fill-opacity:1;fill-rule:evenodd;stroke:none;stroke-width:4.32172871;marker:none;visibility:visible;display:inline;overflow:visible"
       d="m 338.52736,197.82364 -13.1081,-1.27087 7.65466,-10.71652 z"
       id="path7527" />
    <path
       transform="scale(0.9778537,1.0226478)"
       style="font-size:14.70765972px;font-style:normal;font-variant:normal;font-weight:normal;font-stretch:normal;text-align:center;line-height:125%;writing-mode:lr-tb;text-anchor:middle;fill:#ffffff;fill-opacity:1;stroke:none;font-family:sans-serif"
       d="M 144.54706,9.4100201 141.0384,21.618527 c -0.17099,0.608717 -0.25649,0.981469 -0.25649,1.118258 0,0.102593 0.0325,0.188087 0.0975,0.256481 0.065,0.0684 0.14533,0.102593 0.24109,0.102593 0.12995,0 0.27016,-0.05814 0.42063,-0.174408 0.35565,-0.280418 0.7284,-0.714726 1.11826,-1.302924 l 0.30777,0.318036 c -0.64975,0.916494 -1.24821,1.555987 -1.79536,1.91848 -0.40354,0.259901 -0.78655,0.389851 -1.14904,0.389851 -0.2599,0 -0.47706,-0.08891 -0.65146,-0.26674 -0.17441,-0.177827 -0.26161,-0.383012 -0.26161,-0.615555 0,-0.246221 0.10943,-0.752344 0.32829,-1.518369 l 2.78026,-9.623176 c 0.2257,-0.78653 0.33855,-1.237936 0.33855,-1.354221 0,-0.164134 -0.065,-0.299214 -0.19492,-0.40524 -0.12996,-0.105998 -0.33172,-0.159005 -0.6053,-0.159018 -0.15731,1.3e-5 -0.39669,0.02395 -0.71814,0.07181 l 0,-0.3795917 3.50866,-0.5847772 z m 2.08263,10.7209159 c -0.0479,0.341978 -0.0718,0.625817 -0.0718,0.851517 0,0.608718 0.21544,1.12681 0.64633,1.554276 0.43089,0.42747 0.95411,0.641204 1.56967,0.641204 0.49244,0 0.96607,-0.100882 1.4209,-0.302648 0.45482,-0.201764 1.13022,-0.648041 2.02621,-1.338832 l 0.21544,0.297518 c -1.62097,1.607283 -3.16669,2.410923 -4.63718,2.410923 -0.99857,0 -1.75091,-0.314616 -2.25703,-0.94385 -0.50613,-0.629233 -0.75919,-1.323442 -0.75919,-2.082628 0,-1.019082 0.31462,-2.062104 0.94385,-3.129071 0.62923,-1.066955 1.41919,-1.896244 2.36989,-2.487868 0.95068,-0.591608 1.92873,-0.887416 2.93414,-0.887425 0.72498,9e-6 1.26188,0.147058 1.61071,0.441148 0.3488,0.294107 0.52321,0.642921 0.52322,1.046443 -1e-5,0.567686 -0.22571,1.111425 -0.67711,1.631221 -0.59505,0.677116 -1.4705,1.224275 -2.62637,1.64148 -0.76603,0.280423 -1.84325,0.499287 -3.23166,0.656592 l 0,0 z m 0.0718,-0.502704 c 1.01224,-0.116267 1.8364,-0.314612 2.47248,-0.595036 0.84125,-0.376167 1.4722,-0.825864 1.89283,-1.349091 0.42062,-0.523215 0.63094,-1.020788 0.63094,-1.492721 0,-0.287251 -0.0906,-0.519794 -0.27187,-0.697629 -0.18125,-0.177818 -0.43944,-0.266732 -0.77457,-0.266741 -0.69763,9e-6 -1.43801,0.371052 -2.22113,1.113129 -0.78312,0.742093 -1.35935,1.838121 -1.72868,3.288089 l 0,0 z m 7.83807,-4.339662 3.53944,-0.574518 -1.47733,4.985995 c 1.1969,-2.045004 2.28438,-3.474458 3.26244,-4.288366 0.55399,-0.465077 1.0054,-0.69762 1.35422,-0.697629 0.22569,9e-6 0.40352,0.06669 0.53348,0.200055 0.12994,0.133379 0.19492,0.326595 0.19492,0.579648 0,0.451415 -0.11628,0.882303 -0.34881,1.292665 -0.16416,0.307785 -0.40012,0.461673 -0.70789,0.461666 -0.15731,7e-6 -0.29239,-0.05129 -0.40524,-0.153888 -0.11286,-0.102586 -0.18296,-0.259894 -0.21031,-0.471926 -0.0137,-0.129943 -0.0445,-0.215436 -0.0923,-0.256481 -0.0547,-0.05471 -0.11969,-0.08207 -0.19492,-0.08207 -0.11628,8e-6 -0.22571,0.02737 -0.3283,0.08207 -0.17783,0.09576 -0.44799,0.362501 -0.81048,0.800221 -0.56768,0.670278 -1.18324,1.538893 -1.84666,2.60585 -0.28727,0.451411 -0.53349,0.960953 -0.73867,1.528628 -0.28726,0.779705 -0.45141,1.24821 -0.49244,1.405517 l -0.3283,1.292665 -1.56966,0 1.89796,-6.370993 c 0.21886,-0.738659 0.32829,-1.2653 0.32829,-1.579925 0,-0.123103 -0.0513,-0.225695 -0.15389,-0.307777 -0.13679,-0.109424 -0.31804,-0.16414 -0.54374,-0.164148 -0.14363,8e-6 -0.40695,0.03079 -0.78996,0.09233 l -0.0718,-0.379592 z m 11.7058,-0.574518 -1.36448,4.667958 c 1.27898,-1.908214 2.25874,-3.16326 2.93927,-3.765144 0.68053,-0.601867 1.33541,-0.902805 1.96465,-0.902814 0.34197,9e-6 0.6241,0.112861 0.84639,0.338555 0.22227,0.225712 0.33341,0.519811 0.33342,0.882296 -1e-5,0.410377 -0.0992,0.957537 -0.29751,1.641479 l -1.25163,4.319144 c -0.14364,0.499285 -0.21545,0.803643 -0.21545,0.913074 0,0.09575 0.0274,0.176118 0.0821,0.241092 0.0547,0.06498 0.11284,0.09746 0.1744,0.09746 0.0821,10e-7 0.18124,-0.04446 0.29752,-0.13337 0.36249,-0.287258 0.75918,-0.724986 1.19008,-1.313184 l 0.31803,0.194925 c -0.63608,0.909655 -1.23796,1.559407 -1.80563,1.949258 -0.39669,0.26674 -0.75235,0.40011 -1.06696,0.40011 -0.25307,0 -0.45483,-0.07694 -0.60529,-0.230833 -0.15048,-0.153888 -0.22571,-0.360783 -0.22571,-0.620684 0,-0.328295 0.11627,-0.892553 0.34882,-1.692776 l 1.19007,-4.124219 c 0.15046,-0.512955 0.2257,-0.913065 0.2257,-1.200332 0,-0.136782 -0.0445,-0.247924 -0.13337,-0.333425 -0.0889,-0.08549 -0.19835,-0.128233 -0.32829,-0.128241 -0.19151,8e-6 -0.42064,0.08208 -0.68737,0.246222 -0.50613,0.307785 -1.03277,0.815617 -1.57993,1.523499 -0.54716,0.707893 -1.1251,1.612416 -1.73381,2.713571 -0.32146,0.58136 -0.5882,1.217433 -0.80022,1.90822 l -0.51296,1.692776 -1.53889,0 1.86718,-6.42229 c 0.21886,-0.772856 0.3283,-1.237941 0.3283,-1.395257 0,-0.150461 -0.0598,-0.282122 -0.17954,-0.394982 -0.11969,-0.112843 -0.26845,-0.169269 -0.44628,-0.169277 -0.0821,8e-6 -0.2257,0.01369 -0.43088,0.04104 l -0.38986,0.06156 -0.0615,-0.369333 3.5497,-0.636073 z M 176.8124,10.64113 c 0.28725,1.3e-5 0.53005,0.09919 0.7284,0.297518 0.19834,0.198359 0.29751,0.441161 0.29752,0.728407 -1e-5,0.280431 -0.10089,0.521524 -0.30265,0.723277 -0.20177,0.201777 -0.44286,0.302659 -0.72327,0.302648 -0.28043,1.1e-5 -0.52152,-0.100871 -0.72328,-0.302648 -0.20177,-0.201753 -0.30265,-0.442846 -0.30265,-0.723277 0,-0.287246 0.0992,-0.530048 0.29752,-0.728407 0.19834,-0.198332 0.44114,-0.297505 0.72841,-0.297518 l 0,0 z m 0.13337,4.072922 -2.03134,7.191734 c -0.13679,0.485606 -0.20518,0.776284 -0.20518,0.872036 0,0.109433 0.0325,0.198346 0.0975,0.26674 0.065,0.0684 0.14192,0.102594 0.23084,0.102593 0.10258,10e-7 0.2257,-0.05472 0.36933,-0.164148 0.38985,-0.307776 0.78312,-0.745504 1.17981,-1.313184 l 0.35908,0.235963 c -0.46509,0.711309 -1.01225,1.309765 -1.64148,1.795368 -0.46509,0.362494 -0.90966,0.54374 -1.33371,0.54374 -0.28042,0 -0.50954,-0.08378 -0.68737,-0.251351 -0.17782,-0.167568 -0.26674,-0.377882 -0.26674,-0.630944 0,-0.253061 0.0855,-0.673689 0.25648,-1.261888 l 1.33371,-4.596143 c 0.21886,-0.752338 0.32829,-1.224263 0.32829,-1.415777 0,-0.150461 -0.053,-0.273571 -0.15902,-0.369333 -0.10601,-0.09574 -0.25135,-0.143621 -0.43601,-0.143629 -0.15047,8e-6 -0.46167,0.03763 -0.9336,0.112852 l 0,-0.400111 3.53945,-0.574518 z m 7.24303,-5.3040319 -3.50867,12.2085069 c -0.17099,0.608717 -0.25648,0.981469 -0.25648,1.118258 0,0.102593 0.0325,0.188087 0.0975,0.256481 0.065,0.0684 0.14533,0.102593 0.24109,0.102593 0.12995,0 0.27016,-0.05814 0.42063,-0.174408 0.35565,-0.280418 0.7284,-0.714726 1.11826,-1.302924 l 0.30777,0.318036 c -0.64975,0.916494 -1.24821,1.555987 -1.79537,1.91848 -0.40353,0.259901 -0.78654,0.389851 -1.14903,0.389851 -0.2599,0 -0.47706,-0.08891 -0.65146,-0.26674 -0.17441,-0.177827 -0.26162,-0.383012 -0.26161,-0.615555 -1e-5,-0.246221 0.10943,-0.752344 0.32829,-1.518369 l 2.78026,-9.623176 c 0.2257,-0.78653 0.33855,-1.237936 0.33855,-1.354221 0,-0.164134 -0.065,-0.299214 -0.19492,-0.40524 -0.12996,-0.105998 -0.33172,-0.159005 -0.6053,-0.159018 -0.15731,1.3e-5 -0.39669,0.02395 -0.71815,0.07181 l 0,-0.3795917 3.50867,-0.5847772 z m 9.29488,8.5151769 c -1e-5,1.02593 -0.27188,2.041595 -0.81561,3.046997 -0.54375,1.005408 -1.30122,1.802209 -2.27243,2.390405 -0.97121,0.588197 -1.91506,0.882295 -2.83155,0.882295 -0.93701,0 -1.70133,-0.299228 -2.29294,-0.897684 -0.59162,-0.598455 -0.88743,-1.373027 -0.88743,-2.32372 0,-1.005402 0.28897,-2.014227 0.86691,-3.026478 0.57794,-1.012239 1.3508,-1.81246 2.31859,-2.400665 0.96779,-0.588188 1.90309,-0.882286 2.80591,-0.882295 0.9028,9e-6 1.6466,0.297527 2.23138,0.892555 0.58477,0.595044 0.87716,1.367907 0.87717,2.31859 l 0,0 z m -1.70304,-0.707888 c 0,-0.636066 -0.1556,-1.12338 -0.46679,-1.461943 -0.31121,-0.338547 -0.71303,-0.507824 -1.20546,-0.507833 -1.00542,9e-6 -1.93046,0.719865 -2.77513,2.159572 -0.84468,1.43972 -1.26702,2.870883 -1.26702,4.293496 0,0.649754 0.16415,1.150747 0.49245,1.50298 0.32829,0.352234 0.74208,0.528351 1.24136,0.528351 0.96437,0 1.86889,-0.716437 2.71358,-2.149313 0.84467,-1.432871 1.26701,-2.887973 1.26701,-4.36531 l 0,0 z"
       id="text2191" />
  </g>
</svg>
