<?xml version="1.0" encoding="UTF-8" standalone="no"?>
<!-- Created with Inkscape (http://www.inkscape.org/) -->
<svg
   xmlns:dc="http://purl.org/dc/elements/1.1/"
   xmlns:cc="http://web.resource.org/cc/"
   xmlns:rdf="http://www.w3.org/1999/02/22-rdf-syntax-ns#"
   xmlns:svg="http://www.w3.org/2000/svg"
   xmlns="http://www.w3.org/2000/svg"
   xmlns:xlink="http://www.w3.org/1999/xlink"
   xmlns:sodipodi="http://sodipodi.sourceforge.net/DTD/sodipodi-0.dtd"
   xmlns:inkscape="http://www.inkscape.org/namespaces/inkscape"
   width="744.09448819"
   height="1052.3622047"
   id="svg3254"
   sodipodi:version="0.32"
   inkscape:version="0.41+cvs"
   sodipodi:docbase="/home/d/ink/doc-docbook/tips"
   sodipodi:docname="tips-f01.svg">
  <defs
     id="defs3" />
  <sodipodi:namedview
     id="base"
     pagecolor="#ffffff"
     bordercolor="#666666"
     borderopacity="1.0"
     inkscape:pageopacity="0.0"
     inkscape:pageshadow="2"
     inkscape:zoom="0.70000000"
     inkscape:cx="145.89600"
     inkscape:cy="1017.3333"
     inkscape:document-units="px"
     inkscape:current-layer="layer1"
     inkscape:window-width="755"
     inkscape:window-height="511"
     inkscape:window-x="2"
     inkscape:window-y="23" />
  <metadata
     id="metadata4">
    <rdf:RDF
       id="RDF5">
      <cc:Work
         rdf:about=""
         id="Work6">
        <dc:format
           id="format7">image/svg+xml</dc:format>
        <dc:type
           id="type9"
           rdf:resource="http://purl.org/dc/dcmitype/StillImage" />
      </cc:Work>
    </rdf:RDF>
  </metadata>
  <g
     inkscape:label="Layer 1"
     inkscape:groupmode="layer"
     id="layer1">
    <path
       inkscape:tile-cy="346.50000"
       inkscape:tile-cx="160.25000"
       inkscape:tile-h="0.30000001"
       inkscape:tile-w="117.80000"
       id="path25"
       d="M 81.500000,58.900000 L 199.00000,58.900000"
       style="color:#000000;fill:none;fill-opacity:0.75000000;fill-rule:evenodd;stroke:#000000;stroke-width:0.30000001;stroke-linecap:butt;stroke-linejoin:miter;marker:none;marker-start:none;marker-mid:none;marker-end:none;stroke-miterlimit:4.0000000;stroke-dashoffset:0.0000000;stroke-opacity:1.0000000;visibility:visible;display:inline;overflow:visible" />
    <use
       height="1052.3622"
       width="744.09448"
       id="use55"
       transform="matrix(0.994522,0.104528,-0.104528,0.994522,6.925170,-14.33743)"
       xlink:href="#path25"
       inkscape:tiled-clone-of="#path25"
       y="0.0000000"
       x="0.0000000" />
    <use
       height="1052.3622"
       width="744.09448"
       id="use56"
       transform="matrix(0.978148,0.207912,-0.207912,0.978148,15.31072,-27.87239)"
       xlink:href="#path25"
       inkscape:tiled-clone-of="#path25"
       y="0.0000000"
       x="0.0000000" />
    <use
       height="1052.3622"
       width="744.09448"
       id="use57"
       transform="matrix(0.951057,0.309017,-0.309017,0.951057,25.06545,-40.45673)"
       xlink:href="#path25"
       inkscape:tiled-clone-of="#path25"
       y="0.0000000"
       x="0.0000000" />
    <use
       height="1052.3622"
       width="744.09448"
       id="use58"
       transform="matrix(0.913545,0.406737,-0.406737,0.913545,36.08194,-51.95277)"
       xlink:href="#path25"
       inkscape:tiled-clone-of="#path25"
       y="0.0000000"
       x="0.0000000" />
    <use
       height="1052.3622"
       width="744.09448"
       id="use59"
       transform="matrix(0.866025,0.500000,-0.500000,0.866025,48.23990,-62.23401)"
       xlink:href="#path25"
       inkscape:tiled-clone-of="#path25"
       y="0.0000000"
       x="0.0000000" />
    <use
       height="1052.3622"
       width="744.09448"
       id="use60"
       transform="matrix(0.809017,0.587785,-0.587785,0.809017,61.40597,-71.18799)"
       xlink:href="#path25"
       inkscape:tiled-clone-of="#path25"
       y="0.0000000"
       x="0.0000000" />
    <use
       height="1052.3622"
       width="744.09448"
       id="use61"
       transform="matrix(0.743145,0.669131,-0.669131,0.743145,75.43562,-78.71674)"
       xlink:href="#path25"
       inkscape:tiled-clone-of="#path25"
       y="0.0000000"
       x="0.0000000" />
    <use
       height="1052.3622"
       width="744.09448"
       id="use62"
       transform="matrix(0.669131,0.743145,-0.743145,0.669131,90.17562,-84.73774)"
       xlink:href="#path25"
       inkscape:tiled-clone-of="#path25"
       y="0.0000000"
       x="0.0000000" />
    <use
       height="1052.3622"
       width="744.09448"
       id="use63"
       transform="matrix(0.587785,0.809017,-0.809017,0.587785,105.4642,-89.18526)"
       xlink:href="#path25"
       inkscape:tiled-clone-of="#path25"
       y="0.0000000"
       x="0.0000000" />
    <use
       height="1052.3622"
       width="744.09448"
       id="use64"
       transform="matrix(0.500000,0.866025,-0.866025,0.500000,121.1340,-92.01010)"
       xlink:href="#path25"
       inkscape:tiled-clone-of="#path25"
       y="0.0000000"
       x="0.0000000" />
    <use
       height="1052.3622"
       width="744.09448"
       id="use65"
       transform="matrix(0.406737,0.913545,-0.913545,0.406737,137.0132,-93.18140)"
       xlink:href="#path25"
       inkscape:tiled-clone-of="#path25"
       y="0.0000000"
       x="0.0000000" />
    <use
       height="1052.3622"
       width="744.09448"
       id="use66"
       transform="matrix(0.309017,0.951057,-0.951057,0.309017,152.9274,-92.68676)"
       xlink:href="#path25"
       inkscape:tiled-clone-of="#path25"
       y="0.0000000"
       x="0.0000000" />
    <use
       height="1052.3622"
       width="744.09448"
       id="use67"
       transform="matrix(0.207912,0.978148,-0.978148,0.207912,168.7031,-90.53114)"
       xlink:href="#path25"
       inkscape:tiled-clone-of="#path25"
       y="0.0000000"
       x="0.0000000" />
    <use
       height="1052.3622"
       width="744.09448"
       id="use68"
       transform="matrix(0.104528,0.994522,-0.994522,0.104528,184.1673,-86.73846)"
       xlink:href="#path25"
       inkscape:tiled-clone-of="#path25"
       y="0.0000000"
       x="0.0000000" />
    <use
       height="1052.3622"
       width="744.09448"
       id="use69"
       transform="matrix(6.123032e-17,1.000000,-1.000000,6.123032e-17,199.1500,-81.35000)"
       xlink:href="#path25"
       inkscape:tiled-clone-of="#path25"
       y="0.0000000"
       x="0.0000000" />
    <use
       height="1052.3622"
       width="744.09448"
       id="use70"
       transform="matrix(-0.104528,0.994522,-0.994522,-0.104528,213.4874,-74.42481)"
       xlink:href="#path25"
       inkscape:tiled-clone-of="#path25"
       y="0.0000000"
       x="0.0000000" />
    <use
       height="1052.3622"
       width="744.09448"
       id="use71"
       transform="matrix(-0.207912,0.978148,-0.978148,-0.207912,227.0224,-66.03933)"
       xlink:href="#path25"
       inkscape:tiled-clone-of="#path25"
       y="0.0000000"
       x="0.0000000" />
    <use
       height="1052.3622"
       width="744.09448"
       id="use72"
       transform="matrix(-0.309017,0.951057,-0.951057,-0.309017,239.6068,-56.28455)"
       xlink:href="#path25"
       inkscape:tiled-clone-of="#path25"
       y="0.0000000"
       x="0.0000000" />
    <use
       height="1052.3622"
       width="744.09448"
       id="use73"
       transform="matrix(-0.406737,0.913545,-0.913545,-0.406737,251.1028,-45.26806)"
       xlink:href="#path25"
       inkscape:tiled-clone-of="#path25"
       y="0.0000000"
       x="0.0000000" />
    <use
       height="1052.3622"
       width="744.09448"
       id="use74"
       transform="matrix(-0.500000,0.866025,-0.866025,-0.500000,261.3840,-33.11010)"
       xlink:href="#path25"
       inkscape:tiled-clone-of="#path25"
       y="0.0000000"
       x="0.0000000" />
    <use
       height="1052.3622"
       width="744.09448"
       id="use75"
       transform="matrix(-0.587785,0.809017,-0.809017,-0.587785,270.3380,-19.94403)"
       xlink:href="#path25"
       inkscape:tiled-clone-of="#path25"
       y="0.0000000"
       x="0.0000000" />
    <use
       height="1052.3622"
       width="744.09448"
       id="use76"
       transform="matrix(-0.669131,0.743145,-0.743145,-0.669131,277.8668,-5.914380)"
       xlink:href="#path25"
       inkscape:tiled-clone-of="#path25"
       y="0.0000000"
       x="0.0000000" />
    <use
       height="1052.3622"
       width="744.09448"
       id="use77"
       transform="matrix(-0.743145,0.669131,-0.669131,-0.743145,283.8877,8.825618)"
       xlink:href="#path25"
       inkscape:tiled-clone-of="#path25"
       y="0.0000000"
       x="0.0000000" />
    <use
       height="1052.3622"
       width="744.09448"
       id="use78"
       transform="matrix(-0.809017,0.587785,-0.587785,-0.809017,288.3353,24.11421)"
       xlink:href="#path25"
       inkscape:tiled-clone-of="#path25"
       y="0.0000000"
       x="0.0000000" />
    <use
       height="1052.3622"
       width="744.09448"
       id="use79"
       transform="matrix(-0.866025,0.500000,-0.500000,-0.866025,291.1601,39.78401)"
       xlink:href="#path25"
       inkscape:tiled-clone-of="#path25"
       y="0.0000000"
       x="0.0000000" />
    <use
       height="1052.3622"
       width="744.09448"
       id="use80"
       transform="matrix(-0.913545,0.406737,-0.406737,-0.913545,292.3314,55.66320)"
       xlink:href="#path25"
       inkscape:tiled-clone-of="#path25"
       y="0.0000000"
       x="0.0000000" />
    <use
       height="1052.3622"
       width="744.09448"
       id="use81"
       transform="matrix(-0.951057,0.309017,-0.309017,-0.951057,291.8368,71.57745)"
       xlink:href="#path25"
       inkscape:tiled-clone-of="#path25"
       y="0.0000000"
       x="0.0000000" />
    <use
       height="1052.3622"
       width="744.09448"
       id="use82"
       transform="matrix(-0.978148,0.207912,-0.207912,-0.978148,289.6811,87.35318)"
       xlink:href="#path25"
       inkscape:tiled-clone-of="#path25"
       y="0.0000000"
       x="0.0000000" />
    <use
       height="1052.3622"
       width="744.09448"
       id="use83"
       transform="matrix(-0.994522,0.104528,-0.104528,-0.994522,285.8885,102.8173)"
       xlink:href="#path25"
       inkscape:tiled-clone-of="#path25"
       y="0.0000000"
       x="0.0000000" />
  </g>
</svg>
